%YAML 1.1
%TAG !u! tag:unity3d.com,2011:
--- !u!1 &6559203714170056009
GameObject:
  m_ObjectHideFlags: 0
  m_CorrespondingSourceObject: {fileID: 0}
  m_PrefabInstance: {fileID: 0}
  m_PrefabAsset: {fileID: 0}
  serializedVersion: 6
  m_Component:
  - component: {fileID: 6559203714170056007}
  - component: {fileID: 6559203714170056006}
  m_Layer: 0
  m_Name: Tiled_Wall_Inner_Light_OnByDistance_EmissiveOnly
  m_TagString: Untagged
  m_Icon: {fileID: 0}
  m_NavMeshLayer: 0
  m_StaticEditorFlags: 0
  m_IsActive: 1
--- !u!4 &6559203714170056007
Transform:
  m_ObjectHideFlags: 0
  m_CorrespondingSourceObject: {fileID: 0}
  m_PrefabInstance: {fileID: 0}
  m_PrefabAsset: {fileID: 0}
  m_GameObject: {fileID: 6559203714170056009}
  m_LocalRotation: {x: 0, y: 0, z: 0, w: 1}
  m_LocalPosition: {x: 0, y: 0, z: 0}
  m_LocalScale: {x: 1, y: 1, z: 1}
  m_Children:
  - {fileID: 2796391672592862311}
  m_Father: {fileID: 0}
  m_RootOrder: 0
  m_LocalEulerAnglesHint: {x: 0, y: 0, z: 0}
--- !u!114 &6559203714170056006
MonoBehaviour:
  m_ObjectHideFlags: 0
  m_CorrespondingSourceObject: {fileID: 0}
  m_PrefabInstance: {fileID: 0}
  m_PrefabAsset: {fileID: 0}
  m_GameObject: {fileID: 6559203714170056009}
  m_Enabled: 1
  m_EditorHideFlags: 0
  m_Script: {fileID: 11500000, guid: a3cf5643e9d940c48824c28d366c080b, type: 3}
  m_Name: 
  m_EditorClassIdentifier: 
--- !u!1001 &4236044398224250538
PrefabInstance:
  m_ObjectHideFlags: 0
  serializedVersion: 2
  m_Modification:
    m_TransformParent: {fileID: 6559203714170056007}
    m_Modifications:
    - target: {fileID: 2019781448758893261, guid: 178a56c0c1ad5384598d445074a02ec4, type: 3}
      propertyPath: m_RootOrder
      value: 0
      objectReference: {fileID: 0}
    - target: {fileID: 2019781448758893261, guid: 178a56c0c1ad5384598d445074a02ec4, type: 3}
      propertyPath: m_LocalPosition.x
      value: 0
      objectReference: {fileID: 0}
    - target: {fileID: 2019781448758893261, guid: 178a56c0c1ad5384598d445074a02ec4, type: 3}
      propertyPath: m_LocalPosition.y
      value: 0
      objectReference: {fileID: 0}
    - target: {fileID: 2019781448758893261, guid: 178a56c0c1ad5384598d445074a02ec4, type: 3}
      propertyPath: m_LocalPosition.z
      value: 0
      objectReference: {fileID: 0}
    - target: {fileID: 2019781448758893261, guid: 178a56c0c1ad5384598d445074a02ec4, type: 3}
      propertyPath: m_LocalRotation.w
      value: 0.00000047683716
      objectReference: {fileID: 0}
    - target: {fileID: 2019781448758893261, guid: 178a56c0c1ad5384598d445074a02ec4, type: 3}
      propertyPath: m_LocalRotation.x
      value: -0.0000004015003
      objectReference: {fileID: 0}
    - target: {fileID: 2019781448758893261, guid: 178a56c0c1ad5384598d445074a02ec4, type: 3}
      propertyPath: m_LocalRotation.y
      value: 0.7071069
      objectReference: {fileID: 0}
    - target: {fileID: 2019781448758893261, guid: 178a56c0c1ad5384598d445074a02ec4, type: 3}
      propertyPath: m_LocalRotation.z
      value: 0.7071067
      objectReference: {fileID: 0}
    - target: {fileID: 2019781448758893261, guid: 178a56c0c1ad5384598d445074a02ec4, type: 3}
      propertyPath: m_LocalEulerAnglesHint.x
      value: -90
      objectReference: {fileID: 0}
    - target: {fileID: 2019781448758893261, guid: 178a56c0c1ad5384598d445074a02ec4, type: 3}
      propertyPath: m_LocalEulerAnglesHint.y
      value: 0
      objectReference: {fileID: 0}
    - target: {fileID: 2019781448758893261, guid: 178a56c0c1ad5384598d445074a02ec4, type: 3}
      propertyPath: m_LocalEulerAnglesHint.z
      value: 180
      objectReference: {fileID: 0}
    - target: {fileID: 4109848440157457162, guid: 178a56c0c1ad5384598d445074a02ec4, type: 3}
      propertyPath: m_Name
      value: 1Light_Inners (11)
      objectReference: {fileID: 0}
    - target: {fileID: 6460115338666595385, guid: 178a56c0c1ad5384598d445074a02ec4, type: 3}
      propertyPath: m_Materials.Array.data[0]
      value: 
      objectReference: {fileID: 2100000, guid: 7d1319aa146bf5d42bf43f0905e70fec, type: 2}
    m_RemovedComponents: []
  m_SourcePrefab: {fileID: 100100000, guid: 178a56c0c1ad5384598d445074a02ec4, type: 3}
--- !u!1 &270337535630630304 stripped
GameObject:
  m_CorrespondingSourceObject: {fileID: 4109848440157457162, guid: 178a56c0c1ad5384598d445074a02ec4, type: 3}
  m_PrefabInstance: {fileID: 4236044398224250538}
  m_PrefabAsset: {fileID: 0}
--- !u!4 &2796391672592862311 stripped
Transform:
  m_CorrespondingSourceObject: {fileID: 2019781448758893261, guid: 178a56c0c1ad5384598d445074a02ec4, type: 3}
  m_PrefabInstance: {fileID: 4236044398224250538}
  m_PrefabAsset: {fileID: 0}
--- !u!114 &4236044398224250536
MonoBehaviour:
  m_ObjectHideFlags: 0
  m_CorrespondingSourceObject: {fileID: 0}
  m_PrefabInstance: {fileID: 0}
  m_PrefabAsset: {fileID: 0}
  m_GameObject: {fileID: 270337535630630304}
  m_Enabled: 1
  m_EditorHideFlags: 0
  m_Script: {fileID: 11500000, guid: 570ba237fff57944cadc8c90c8b06297, type: 3}
  m_Name: 
  m_EditorClassIdentifier: 
