%YAML 1.1
%TAG !u! tag:unity3d.com,2011:
--- !u!114 &11400000
MonoBehaviour:
  m_ObjectHideFlags: 0
  m_CorrespondingSourceObject: {fileID: 0}
  m_PrefabInstance: {fileID: 0}
  m_PrefabAsset: {fileID: 0}
  m_GameObject: {fileID: 0}
  m_Enabled: 1
  m_EditorHideFlags: 0
  m_Script: {fileID: 11500000, guid: 3a02fff447c6ed84b943b1d05661d745, type: 3}
  m_Name: TiledAsset_Wall_InnerCorner_Concave_Light
  m_EditorClassIdentifier: 
  nameString: Inner Corner Light (Concave)
  prefab: {fileID: 2626989401776890383, guid: 3c883689546fb9e4c91dbefe6b3d0c86, type: 3}
  visual: {fileID: 2626989401776890381, guid: 3c883689546fb9e4c91dbefe6b3d0c86, type: 3}
  optionalVisual: {fileID: 0}
  width: 1
  height: 1
