%YAML 1.1
%TAG !u! tag:unity3d.com,2011:
--- !u!1 &5234319798787089684
GameObject:
  m_ObjectHideFlags: 0
  m_CorrespondingSourceObject: {fileID: 0}
  m_PrefabInstance: {fileID: 0}
  m_PrefabAsset: {fileID: 0}
  serializedVersion: 6
  m_Component:
  - component: {fileID: 3359417057631161541}
  - component: {fileID: 4387157667729052970}
  m_Layer: 0
  m_Name: Tiled_Wall_Inner3
  m_TagString: Untagged
  m_Icon: {fileID: 0}
  m_NavMeshLayer: 0
  m_StaticEditorFlags: 0
  m_IsActive: 1
--- !u!4 &3359417057631161541
Transform:
  m_ObjectHideFlags: 0
  m_CorrespondingSourceObject: {fileID: 0}
  m_PrefabInstance: {fileID: 0}
  m_PrefabAsset: {fileID: 0}
  m_GameObject: {fileID: 5234319798787089684}
  m_LocalRotation: {x: 0, y: 0, z: 0, w: 1}
  m_LocalPosition: {x: 0, y: 0, z: 0}
  m_LocalScale: {x: 1, y: 1, z: 1}
  m_Children:
  - {fileID: 8646029060471303612}
  m_Father: {fileID: 0}
  m_RootOrder: 0
  m_LocalEulerAnglesHint: {x: 0, y: 0, z: 0}
--- !u!114 &4387157667729052970
MonoBehaviour:
  m_ObjectHideFlags: 0
  m_CorrespondingSourceObject: {fileID: 0}
  m_PrefabInstance: {fileID: 0}
  m_PrefabAsset: {fileID: 0}
  m_GameObject: {fileID: 5234319798787089684}
  m_Enabled: 1
  m_EditorHideFlags: 0
  m_Script: {fileID: 11500000, guid: a3cf5643e9d940c48824c28d366c080b, type: 3}
  m_Name: 
  m_EditorClassIdentifier: 
--- !u!1001 &6965483857688034032
PrefabInstance:
  m_ObjectHideFlags: 0
  serializedVersion: 2
  m_Modification:
    m_TransformParent: {fileID: 3359417057631161541}
    m_Modifications:
    - target: {fileID: 1681675782062004044, guid: 03b20fe2c166b9e4f9b2bfe690b88272, type: 3}
      propertyPath: m_RootOrder
      value: 0
      objectReference: {fileID: 0}
    - target: {fileID: 1681675782062004044, guid: 03b20fe2c166b9e4f9b2bfe690b88272, type: 3}
      propertyPath: m_LocalPosition.x
      value: 0
      objectReference: {fileID: 0}
    - target: {fileID: 1681675782062004044, guid: 03b20fe2c166b9e4f9b2bfe690b88272, type: 3}
      propertyPath: m_LocalPosition.y
      value: 0
      objectReference: {fileID: 0}
    - target: {fileID: 1681675782062004044, guid: 03b20fe2c166b9e4f9b2bfe690b88272, type: 3}
      propertyPath: m_LocalPosition.z
      value: 0
      objectReference: {fileID: 0}
    - target: {fileID: 1681675782062004044, guid: 03b20fe2c166b9e4f9b2bfe690b88272, type: 3}
      propertyPath: m_LocalRotation.w
      value: 0
      objectReference: {fileID: 0}
    - target: {fileID: 1681675782062004044, guid: 03b20fe2c166b9e4f9b2bfe690b88272, type: 3}
      propertyPath: m_LocalRotation.x
      value: -0
      objectReference: {fileID: 0}
    - target: {fileID: 1681675782062004044, guid: 03b20fe2c166b9e4f9b2bfe690b88272, type: 3}
      propertyPath: m_LocalRotation.y
      value: 0.7071068
      objectReference: {fileID: 0}
    - target: {fileID: 1681675782062004044, guid: 03b20fe2c166b9e4f9b2bfe690b88272, type: 3}
      propertyPath: m_LocalRotation.z
      value: 0.7071068
      objectReference: {fileID: 0}
    - target: {fileID: 1681675782062004044, guid: 03b20fe2c166b9e4f9b2bfe690b88272, type: 3}
      propertyPath: m_LocalEulerAnglesHint.x
      value: -90
      objectReference: {fileID: 0}
    - target: {fileID: 1681675782062004044, guid: 03b20fe2c166b9e4f9b2bfe690b88272, type: 3}
      propertyPath: m_LocalEulerAnglesHint.y
      value: 180
      objectReference: {fileID: 0}
    - target: {fileID: 1681675782062004044, guid: 03b20fe2c166b9e4f9b2bfe690b88272, type: 3}
      propertyPath: m_LocalEulerAnglesHint.z
      value: 0
      objectReference: {fileID: 0}
    - target: {fileID: 5528098252767874414, guid: 03b20fe2c166b9e4f9b2bfe690b88272, type: 3}
      propertyPath: m_Name
      value: 3_Inners
      objectReference: {fileID: 0}
    - target: {fileID: 5528098252767874414, guid: 03b20fe2c166b9e4f9b2bfe690b88272, type: 3}
      propertyPath: m_IsActive
      value: 1
      objectReference: {fileID: 0}
    m_RemovedComponents: []
  m_SourcePrefab: {fileID: 100100000, guid: 03b20fe2c166b9e4f9b2bfe690b88272, type: 3}
--- !u!4 &8646029060471303612 stripped
Transform:
  m_CorrespondingSourceObject: {fileID: 1681675782062004044, guid: 03b20fe2c166b9e4f9b2bfe690b88272, type: 3}
  m_PrefabInstance: {fileID: 6965483857688034032}
  m_PrefabAsset: {fileID: 0}
