%YAML 1.1
%TAG !u! tag:unity3d.com,2011:
--- !u!1 &7103013951307359370
GameObject:
  m_ObjectHideFlags: 0
  m_CorrespondingSourceObject: {fileID: 0}
  m_PrefabInstance: {fileID: 0}
  m_PrefabAsset: {fileID: 0}
  serializedVersion: 6
  m_Component:
  - component: {fileID: 4294245200220519748}
  - component: {fileID: 4347128355746644133}
  m_Layer: 0
  m_Name: Tiled_Wall_InnerCorner_Concave
  m_TagString: Untagged
  m_Icon: {fileID: 0}
  m_NavMeshLayer: 0
  m_StaticEditorFlags: 0
  m_IsActive: 1
--- !u!4 &4294245200220519748
Transform:
  m_ObjectHideFlags: 0
  m_CorrespondingSourceObject: {fileID: 0}
  m_PrefabInstance: {fileID: 0}
  m_PrefabAsset: {fileID: 0}
  m_GameObject: {fileID: 7103013951307359370}
  m_LocalRotation: {x: 0, y: 0, z: 0, w: 1}
  m_LocalPosition: {x: 0, y: 0, z: 0}
  m_LocalScale: {x: 1, y: 1, z: 1}
  m_Children:
  - {fileID: 956283100984246329}
  m_Father: {fileID: 0}
  m_RootOrder: 0
  m_LocalEulerAnglesHint: {x: 0, y: 0, z: 0}
--- !u!114 &4347128355746644133
MonoBehaviour:
  m_ObjectHideFlags: 0
  m_CorrespondingSourceObject: {fileID: 0}
  m_PrefabInstance: {fileID: 0}
  m_PrefabAsset: {fileID: 0}
  m_GameObject: {fileID: 7103013951307359370}
  m_Enabled: 1
  m_EditorHideFlags: 0
  m_Script: {fileID: 11500000, guid: a3cf5643e9d940c48824c28d366c080b, type: 3}
  m_Name: 
  m_EditorClassIdentifier: 
--- !u!1001 &6677201810275866204
PrefabInstance:
  m_ObjectHideFlags: 0
  serializedVersion: 2
  m_Modification:
    m_TransformParent: {fileID: 4294245200220519748}
    m_Modifications:
    - target: {fileID: 1683561883398587811, guid: 84050e8816d48374c9e1d62ae4db9324, type: 3}
      propertyPath: m_Name
      value: ConcaveCorners_Inners
      objectReference: {fileID: 0}
    - target: {fileID: 5904018736795784805, guid: 84050e8816d48374c9e1d62ae4db9324, type: 3}
      propertyPath: m_RootOrder
      value: 0
      objectReference: {fileID: 0}
    - target: {fileID: 5904018736795784805, guid: 84050e8816d48374c9e1d62ae4db9324, type: 3}
      propertyPath: m_LocalPosition.x
      value: 0
      objectReference: {fileID: 0}
    - target: {fileID: 5904018736795784805, guid: 84050e8816d48374c9e1d62ae4db9324, type: 3}
      propertyPath: m_LocalPosition.y
      value: 0
      objectReference: {fileID: 0}
    - target: {fileID: 5904018736795784805, guid: 84050e8816d48374c9e1d62ae4db9324, type: 3}
      propertyPath: m_LocalPosition.z
      value: 0.5
      objectReference: {fileID: 0}
    - target: {fileID: 5904018736795784805, guid: 84050e8816d48374c9e1d62ae4db9324, type: 3}
      propertyPath: m_LocalRotation.w
      value: -0.5
      objectReference: {fileID: 0}
    - target: {fileID: 5904018736795784805, guid: 84050e8816d48374c9e1d62ae4db9324, type: 3}
      propertyPath: m_LocalRotation.x
      value: 0.5
      objectReference: {fileID: 0}
    - target: {fileID: 5904018736795784805, guid: 84050e8816d48374c9e1d62ae4db9324, type: 3}
      propertyPath: m_LocalRotation.y
      value: 0.5
      objectReference: {fileID: 0}
    - target: {fileID: 5904018736795784805, guid: 84050e8816d48374c9e1d62ae4db9324, type: 3}
      propertyPath: m_LocalRotation.z
      value: 0.5
      objectReference: {fileID: 0}
    - target: {fileID: 5904018736795784805, guid: 84050e8816d48374c9e1d62ae4db9324, type: 3}
      propertyPath: m_LocalEulerAnglesHint.x
      value: -90
      objectReference: {fileID: 0}
    - target: {fileID: 5904018736795784805, guid: 84050e8816d48374c9e1d62ae4db9324, type: 3}
      propertyPath: m_LocalEulerAnglesHint.y
      value: 270
      objectReference: {fileID: 0}
    - target: {fileID: 5904018736795784805, guid: 84050e8816d48374c9e1d62ae4db9324, type: 3}
      propertyPath: m_LocalEulerAnglesHint.z
      value: 0
      objectReference: {fileID: 0}
    m_RemovedComponents: []
  m_SourcePrefab: {fileID: 100100000, guid: 84050e8816d48374c9e1d62ae4db9324, type: 3}
--- !u!4 &956283100984246329 stripped
Transform:
  m_CorrespondingSourceObject: {fileID: 5904018736795784805, guid: 84050e8816d48374c9e1d62ae4db9324, type: 3}
  m_PrefabInstance: {fileID: 6677201810275866204}
  m_PrefabAsset: {fileID: 0}
