%YAML 1.1
%TAG !u! tag:unity3d.com,2011:
--- !u!114 &11400000
MonoBehaviour:
  m_ObjectHideFlags: 0
  m_CorrespondingSourceObject: {fileID: 0}
  m_PrefabInstance: {fileID: 0}
  m_PrefabAsset: {fileID: 0}
  m_GameObject: {fileID: 0}
  m_Enabled: 1
  m_EditorHideFlags: 0
  m_Script: {fileID: 11500000, guid: 3a02fff447c6ed84b943b1d05661d745, type: 3}
  m_Name: TiledAsset_Wall_Inner_Light_OnByDistance_EmissiveOnly
  m_EditorClassIdentifier: 
  nameString: Inner Light On by distance (Emissive only)
  prefab: {fileID: 6559203714170056007, guid: e342b7ddde519b048901a9cab867e00e, type: 3}
  visual: {fileID: 6559203714170056009, guid: e342b7ddde519b048901a9cab867e00e, type: 3}
  optionalVisual: {fileID: 0}
  width: 1
  height: 1
