%YAML 1.1
%TAG !u! tag:unity3d.com,2011:
--- !u!114 &11400000
MonoBehaviour:
  m_ObjectHideFlags: 0
  m_CorrespondingSourceObject: {fileID: 0}
  m_PrefabInstance: {fileID: 0}
  m_PrefabAsset: {fileID: 0}
  m_GameObject: {fileID: 0}
  m_Enabled: 1
  m_EditorHideFlags: 0
  m_Script: {fileID: 11500000, guid: 3a02fff447c6ed84b943b1d05661d745, type: 3}
  m_Name: TiledAsset_Wall_Inner4
  m_EditorClassIdentifier: 
  nameString: Inner 4
  prefab: {fileID: 6867431130194480288, guid: 19daa94d3a61bb3428eeb509f00df416, type: 3}
  visual: {fileID: 754135500216931247, guid: 19daa94d3a61bb3428eeb509f00df416, type: 3}
  optionalVisual: {fileID: 0}
  width: 4
  height: 1
