%YAML 1.1
%TAG !u! tag:unity3d.com,2011:
--- !u!114 &11400000
MonoBehaviour:
  m_ObjectHideFlags: 0
  m_CorrespondingSourceObject: {fileID: 0}
  m_PrefabInstance: {fileID: 0}
  m_PrefabAsset: {fileID: 0}
  m_GameObject: {fileID: 0}
  m_Enabled: 1
  m_EditorHideFlags: 0
  m_Script: {fileID: 11500000, guid: 3a02fff447c6ed84b943b1d05661d745, type: 3}
  m_Name: TiledAsset_Wall_Fan
  m_EditorClassIdentifier: 
  nameString: Fan
  prefab: {fileID: 2867021733664801596, guid: 75529d2f7db120d4bbe2b0d872e399ba, type: 3}
  visual: {fileID: 3655325564092055424, guid: 75529d2f7db120d4bbe2b0d872e399ba, type: 3}
  optionalVisual: {fileID: 0}
  width: 6
  height: 1
