%YAML 1.1
%TAG !u! tag:unity3d.com,2011:
--- !u!114 &11400000
MonoBehaviour:
  m_ObjectHideFlags: 0
  m_CorrespondingSourceObject: {fileID: 0}
  m_PrefabInstance: {fileID: 0}
  m_PrefabAsset: {fileID: 0}
  m_GameObject: {fileID: 0}
  m_Enabled: 1
  m_EditorHideFlags: 0
  m_Script: {fileID: 11500000, guid: 3a02fff447c6ed84b943b1d05661d745, type: 3}
  m_Name: TiledAsset_Decor_Railing_Horizontal_Size3
  m_EditorClassIdentifier: 
  nameString: Horizontal Railing 3
  prefab: {fileID: 7980442377866965917, guid: 1184e63f36204ba4f809e870cf4d95db, type: 3}
  visual: {fileID: 7980442377866965919, guid: 1184e63f36204ba4f809e870cf4d95db, type: 3}
  optionalVisual: {fileID: 0}
  width: 1
  height: 15
