%YAML 1.1
%TAG !u! tag:unity3d.com,2011:
--- !u!114 &11400000
MonoBehaviour:
  m_ObjectHideFlags: 0
  m_CorrespondingSourceObject: {fileID: 0}
  m_PrefabInstance: {fileID: 0}
  m_PrefabAsset: {fileID: 0}
  m_GameObject: {fileID: 0}
  m_Enabled: 1
  m_EditorHideFlags: 0
  m_Script: {fileID: 11500000, guid: 3a02fff447c6ed84b943b1d05661d745, type: 3}
  m_Name: TiledAsset_Wall_HighInner4
  m_EditorClassIdentifier: 
  nameString: High Inner 4
  prefab: {fileID: 6867431130194480288, guid: cf8bf4f8edba15443a941bf1ce5822f4, type: 3}
  visual: {fileID: 754135500216931247, guid: cf8bf4f8edba15443a941bf1ce5822f4, type: 3}
  optionalVisual: {fileID: 0}
  width: 4
  height: 1
