%YAML 1.1
%TAG !u! tag:unity3d.com,2011:
--- !u!114 &11400000
MonoBehaviour:
  m_ObjectHideFlags: 0
  m_CorrespondingSourceObject: {fileID: 0}
  m_PrefabInstance: {fileID: 0}
  m_PrefabAsset: {fileID: 0}
  m_GameObject: {fileID: 0}
  m_Enabled: 1
  m_EditorHideFlags: 0
  m_Script: {fileID: 11500000, guid: 3a02fff447c6ed84b943b1d05661d745, type: 3}
  m_Name: TiledAsset_Wall_HighInner5
  m_EditorClassIdentifier: 
  nameString: High Inner 5
  prefab: {fileID: 8395354922476989241, guid: b2e0ffc9ab401704ab895b58c976f556, type: 3}
  visual: {fileID: 744746922004111254, guid: b2e0ffc9ab401704ab895b58c976f556, type: 3}
  optionalVisual: {fileID: 0}
  width: 5
  height: 1
