%YAML 1.1
%TAG !u! tag:unity3d.com,2011:
--- !u!114 &11400000
MonoBehaviour:
  m_ObjectHideFlags: 0
  m_CorrespondingSourceObject: {fileID: 0}
  m_PrefabInstance: {fileID: 0}
  m_PrefabAsset: {fileID: 0}
  m_GameObject: {fileID: 0}
  m_Enabled: 1
  m_EditorHideFlags: 0
  m_Script: {fileID: 11500000, guid: 3a02fff447c6ed84b943b1d05661d745, type: 3}
  m_Name: TiledAsset_Wall_HighInnerCorner_Convex_Light
  m_EditorClassIdentifier: 
  nameString: High Inner Corner Light (Convex)
  prefab: {fileID: 8116353552001178036, guid: 95b6f5d6aa1e941489b485314b6341ed, type: 3}
  visual: {fileID: 6257205083441477815, guid: 95b6f5d6aa1e941489b485314b6341ed, type: 3}
  optionalVisual: {fileID: 0}
  width: 1
  height: 1
