%YAML 1.1
%TAG !u! tag:unity3d.com,2011:
--- !u!114 &11400000
MonoBehaviour:
  m_ObjectHideFlags: 0
  m_CorrespondingSourceObject: {fileID: 0}
  m_PrefabInstance: {fileID: 0}
  m_PrefabAsset: {fileID: 0}
  m_GameObject: {fileID: 0}
  m_Enabled: 1
  m_EditorHideFlags: 0
  m_Script: {fileID: 11500000, guid: 3a02fff447c6ed84b943b1d05661d745, type: 3}
  m_Name: TiledAsset_Wall_HighInner1
  m_EditorClassIdentifier: 
  nameString: High Inner 1
  prefab: {fileID: 3512991446854520800, guid: a13838e5656096947b8893d8ee6d9619, type: 3}
  visual: {fileID: 3512991446854520806, guid: a13838e5656096947b8893d8ee6d9619, type: 3}
  optionalVisual: {fileID: 0}
  width: 1
  height: 1
