%YAML 1.1
%TAG !u! tag:unity3d.com,2011:
--- !u!114 &11400000
MonoBehaviour:
  m_ObjectHideFlags: 0
  m_CorrespondingSourceObject: {fileID: 0}
  m_PrefabInstance: {fileID: 0}
  m_PrefabAsset: {fileID: 0}
  m_GameObject: {fileID: 0}
  m_Enabled: 1
  m_EditorHideFlags: 0
  m_Script: {fileID: 11500000, guid: 3a02fff447c6ed84b943b1d05661d745, type: 3}
  m_Name: TiledAsset_Decor_Box_2x2_45Degrees
  m_EditorClassIdentifier: 
  nameString: "Box 2x2 45\xB0"
  prefab: {fileID: 468501085745521291, guid: f89e6edeaa63f934cbf1d6b53f90e877, type: 3}
  visual: {fileID: 7429656129716887899, guid: f89e6edeaa63f934cbf1d6b53f90e877, type: 3}
  optionalVisual: {fileID: 0}
  width: 2
  height: 2
