%YAML 1.1
%TAG !u! tag:unity3d.com,2011:
--- !u!1001 &5288909702894333197
PrefabInstance:
  m_ObjectHideFlags: 0
  serializedVersion: 2
  m_Modification:
    m_TransformParent: {fileID: 0}
    m_Modifications:
    - target: {fileID: 1742946472192622369, guid: 5978e938bb94e3c4bab72c51cd628e29, type: 3}
      propertyPath: m_RootOrder
      value: 0
      objectReference: {fileID: 0}
    - target: {fileID: 1742946472192622369, guid: 5978e938bb94e3c4bab72c51cd628e29, type: 3}
      propertyPath: m_LocalPosition.x
      value: 0
      objectReference: {fileID: 0}
    - target: {fileID: 1742946472192622369, guid: 5978e938bb94e3c4bab72c51cd628e29, type: 3}
      propertyPath: m_LocalPosition.y
      value: 0
      objectReference: {fileID: 0}
    - target: {fileID: 1742946472192622369, guid: 5978e938bb94e3c4bab72c51cd628e29, type: 3}
      propertyPath: m_LocalPosition.z
      value: 0
      objectReference: {fileID: 0}
    - target: {fileID: 1742946472192622369, guid: 5978e938bb94e3c4bab72c51cd628e29, type: 3}
      propertyPath: m_LocalRotation.w
      value: 1
      objectReference: {fileID: 0}
    - target: {fileID: 1742946472192622369, guid: 5978e938bb94e3c4bab72c51cd628e29, type: 3}
      propertyPath: m_LocalRotation.x
      value: -0
      objectReference: {fileID: 0}
    - target: {fileID: 1742946472192622369, guid: 5978e938bb94e3c4bab72c51cd628e29, type: 3}
      propertyPath: m_LocalRotation.y
      value: -0
      objectReference: {fileID: 0}
    - target: {fileID: 1742946472192622369, guid: 5978e938bb94e3c4bab72c51cd628e29, type: 3}
      propertyPath: m_LocalRotation.z
      value: -0
      objectReference: {fileID: 0}
    - target: {fileID: 1742946472192622369, guid: 5978e938bb94e3c4bab72c51cd628e29, type: 3}
      propertyPath: m_LocalEulerAnglesHint.x
      value: 0
      objectReference: {fileID: 0}
    - target: {fileID: 1742946472192622369, guid: 5978e938bb94e3c4bab72c51cd628e29, type: 3}
      propertyPath: m_LocalEulerAnglesHint.y
      value: 0
      objectReference: {fileID: 0}
    - target: {fileID: 1742946472192622369, guid: 5978e938bb94e3c4bab72c51cd628e29, type: 3}
      propertyPath: m_LocalEulerAnglesHint.z
      value: 0
      objectReference: {fileID: 0}
    - target: {fileID: 1742946472192622371, guid: 5978e938bb94e3c4bab72c51cd628e29, type: 3}
      propertyPath: m_Name
      value: Tiled_Decor_Box_Big_30Degrees
      objectReference: {fileID: 0}
    - target: {fileID: 7446667964592134573, guid: 5978e938bb94e3c4bab72c51cd628e29, type: 3}
      propertyPath: m_LocalRotation.w
      value: 0.6830127
      objectReference: {fileID: 0}
    - target: {fileID: 7446667964592134573, guid: 5978e938bb94e3c4bab72c51cd628e29, type: 3}
      propertyPath: m_LocalRotation.x
      value: -0.6830127
      objectReference: {fileID: 0}
    - target: {fileID: 7446667964592134573, guid: 5978e938bb94e3c4bab72c51cd628e29, type: 3}
      propertyPath: m_LocalRotation.y
      value: 0.18301274
      objectReference: {fileID: 0}
    - target: {fileID: 7446667964592134573, guid: 5978e938bb94e3c4bab72c51cd628e29, type: 3}
      propertyPath: m_LocalRotation.z
      value: 0.18301274
      objectReference: {fileID: 0}
    - target: {fileID: 7446667964592134573, guid: 5978e938bb94e3c4bab72c51cd628e29, type: 3}
      propertyPath: m_LocalEulerAnglesHint.z
      value: 30
      objectReference: {fileID: 0}
    m_RemovedComponents: []
  m_SourcePrefab: {fileID: 100100000, guid: 5978e938bb94e3c4bab72c51cd628e29, type: 3}
