%YAML 1.1
%TAG !u! tag:unity3d.com,2011:
--- !u!114 &11400000
MonoBehaviour:
  m_ObjectHideFlags: 0
  m_CorrespondingSourceObject: {fileID: 0}
  m_PrefabInstance: {fileID: 0}
  m_PrefabAsset: {fileID: 0}
  m_GameObject: {fileID: 0}
  m_Enabled: 1
  m_EditorHideFlags: 0
  m_Script: {fileID: 11500000, guid: 3a02fff447c6ed84b943b1d05661d745, type: 3}
  m_Name: TiledAsset_Decor_Box_Stacked_Variant1
  m_EditorClassIdentifier: 
  nameString: Box stack 1
  prefab: {fileID: 7631656309484793371, guid: e1a98d62a58c1424ea078342778edffc, type: 3}
  visual: {fileID: 608572372603022795, guid: e1a98d62a58c1424ea078342778edffc, type: 3}
  optionalVisual: {fileID: 0}
  width: 2
  height: 2
