%YAML 1.1
%TAG !u! tag:unity3d.com,2011:
--- !u!1001 &2554028009187367009
PrefabInstance:
  m_ObjectHideFlags: 0
  serializedVersion: 2
  m_Modification:
    m_TransformParent: {fileID: 0}
    m_Modifications:
    - target: {fileID: 368578612304399928, guid: 338083eae6e56e64ea68ceebe9c89835, type: 3}
      propertyPath: m_RootOrder
      value: 0
      objectReference: {fileID: 0}
    - target: {fileID: 368578612304399928, guid: 338083eae6e56e64ea68ceebe9c89835, type: 3}
      propertyPath: m_LocalPosition.x
      value: 0
      objectReference: {fileID: 0}
    - target: {fileID: 368578612304399928, guid: 338083eae6e56e64ea68ceebe9c89835, type: 3}
      propertyPath: m_LocalPosition.y
      value: 0
      objectReference: {fileID: 0}
    - target: {fileID: 368578612304399928, guid: 338083eae6e56e64ea68ceebe9c89835, type: 3}
      propertyPath: m_LocalPosition.z
      value: 0
      objectReference: {fileID: 0}
    - target: {fileID: 368578612304399928, guid: 338083eae6e56e64ea68ceebe9c89835, type: 3}
      propertyPath: m_LocalRotation.w
      value: 1
      objectReference: {fileID: 0}
    - target: {fileID: 368578612304399928, guid: 338083eae6e56e64ea68ceebe9c89835, type: 3}
      propertyPath: m_LocalRotation.x
      value: -0
      objectReference: {fileID: 0}
    - target: {fileID: 368578612304399928, guid: 338083eae6e56e64ea68ceebe9c89835, type: 3}
      propertyPath: m_LocalRotation.y
      value: -0
      objectReference: {fileID: 0}
    - target: {fileID: 368578612304399928, guid: 338083eae6e56e64ea68ceebe9c89835, type: 3}
      propertyPath: m_LocalRotation.z
      value: -0
      objectReference: {fileID: 0}
    - target: {fileID: 368578612304399928, guid: 338083eae6e56e64ea68ceebe9c89835, type: 3}
      propertyPath: m_LocalEulerAnglesHint.x
      value: 0
      objectReference: {fileID: 0}
    - target: {fileID: 368578612304399928, guid: 338083eae6e56e64ea68ceebe9c89835, type: 3}
      propertyPath: m_LocalEulerAnglesHint.y
      value: 0
      objectReference: {fileID: 0}
    - target: {fileID: 368578612304399928, guid: 338083eae6e56e64ea68ceebe9c89835, type: 3}
      propertyPath: m_LocalEulerAnglesHint.z
      value: 0
      objectReference: {fileID: 0}
    - target: {fileID: 3194881188167825667, guid: 338083eae6e56e64ea68ceebe9c89835, type: 3}
      propertyPath: m_LocalRotation.w
      value: 0.6532815
      objectReference: {fileID: 0}
    - target: {fileID: 3194881188167825667, guid: 338083eae6e56e64ea68ceebe9c89835, type: 3}
      propertyPath: m_LocalRotation.x
      value: -0.6532815
      objectReference: {fileID: 0}
    - target: {fileID: 3194881188167825667, guid: 338083eae6e56e64ea68ceebe9c89835, type: 3}
      propertyPath: m_LocalRotation.y
      value: 0.27059805
      objectReference: {fileID: 0}
    - target: {fileID: 3194881188167825667, guid: 338083eae6e56e64ea68ceebe9c89835, type: 3}
      propertyPath: m_LocalRotation.z
      value: 0.27059805
      objectReference: {fileID: 0}
    - target: {fileID: 3194881188167825667, guid: 338083eae6e56e64ea68ceebe9c89835, type: 3}
      propertyPath: m_LocalEulerAnglesHint.z
      value: 45
      objectReference: {fileID: 0}
    - target: {fileID: 7243608889485086184, guid: 338083eae6e56e64ea68ceebe9c89835, type: 3}
      propertyPath: m_Name
      value: Tiled_Decor_Box_3x3_45Degrees
      objectReference: {fileID: 0}
    m_RemovedComponents: []
  m_SourcePrefab: {fileID: 100100000, guid: 338083eae6e56e64ea68ceebe9c89835, type: 3}
