%YAML 1.1
%TAG !u! tag:unity3d.com,2011:
--- !u!114 &11400000
MonoBehaviour:
  m_ObjectHideFlags: 0
  m_CorrespondingSourceObject: {fileID: 0}
  m_PrefabInstance: {fileID: 0}
  m_PrefabAsset: {fileID: 0}
  m_GameObject: {fileID: 0}
  m_Enabled: 1
  m_EditorHideFlags: 0
  m_Script: {fileID: 11500000, guid: 3a02fff447c6ed84b943b1d05661d745, type: 3}
  m_Name: TiledAsset_Roof_ScaledLight_Slow Flicker
  m_EditorClassIdentifier: 
  nameString: SCALED Light Slow Flicker
  prefab: {fileID: 7976889675153416384, guid: 648b6e62e8c27a0468a152b2aab74dcb, type: 3}
  visual: {fileID: 7976889675153416386, guid: 648b6e62e8c27a0468a152b2aab74dcb, type: 3}
  optionalVisual: {fileID: 0}
  width: 2
  height: 2
