%YAML 1.1
%TAG !u! tag:unity3d.com,2011:
--- !u!114 &11400000
MonoBehaviour:
  m_ObjectHideFlags: 0
  m_CorrespondingSourceObject: {fileID: 0}
  m_PrefabInstance: {fileID: 0}
  m_PrefabAsset: {fileID: 0}
  m_GameObject: {fileID: 0}
  m_Enabled: 1
  m_EditorHideFlags: 0
  m_Script: {fileID: 11500000, guid: 3a02fff447c6ed84b943b1d05661d745, type: 3}
  m_Name: TiledAsset_Decor_Chair_Side
  m_EditorClassIdentifier: 
  nameString: Chair Side
  prefab: {fileID: 8213830537218796985, guid: 8f6df895d5d72cc48b95ad8a44fbf814, type: 3}
  visual: {fileID: 1239698896050846082, guid: 8f6df895d5d72cc48b95ad8a44fbf814, type: 3}
  optionalVisual: {fileID: 0}
  width: 1
  height: 1
