%YAML 1.1
%TAG !u! tag:unity3d.com,2011:
--- !u!114 &11400000
MonoBehaviour:
  m_ObjectHideFlags: 0
  m_CorrespondingSourceObject: {fileID: 0}
  m_PrefabInstance: {fileID: 0}
  m_PrefabAsset: {fileID: 0}
  m_GameObject: {fileID: 0}
  m_Enabled: 1
  m_EditorHideFlags: 0
  m_Script: {fileID: 11500000, guid: 3a02fff447c6ed84b943b1d05661d745, type: 3}
  m_Name: TiledAsset_Decor_Bed
  m_EditorClassIdentifier: 
  nameString: Bed
  prefab: {fileID: 85741660386468201, guid: a6d803e8eb8f1a14a85b125e693a7644, type: 3}
  visual: {fileID: 4939311495984757164, guid: a6d803e8eb8f1a14a85b125e693a7644, type: 3}
  optionalVisual: {fileID: 0}
  width: 2
  height: 3
