%YAML 1.1
%TAG !u! tag:unity3d.com,2011:
--- !u!114 &11400000
MonoBehaviour:
  m_ObjectHideFlags: 0
  m_CorrespondingSourceObject: {fileID: 0}
  m_PrefabInstance: {fileID: 0}
  m_PrefabAsset: {fileID: 0}
  m_GameObject: {fileID: 0}
  m_Enabled: 1
  m_EditorHideFlags: 0
  m_Script: {fileID: 11500000, guid: 3a02fff447c6ed84b943b1d05661d745, type: 3}
  m_Name: TiledAsset_Floor_CommonFloor5x5
  m_EditorClassIdentifier: 
  nameString: Common Floor 5x5
  prefab: {fileID: 3508050195214243792, guid: 545d3dc4b7db1f945aa5c12e93db7dc9, type: 3}
  visual: {fileID: 7612730297884102174, guid: 545d3dc4b7db1f945aa5c12e93db7dc9, type: 3}
  optionalVisual: {fileID: 0}
  width: 5
  height: 5
