%YAML 1.1
%TAG !u! tag:unity3d.com,2011:
--- !u!1 &7612730297884102174
GameObject:
  m_ObjectHideFlags: 0
  m_CorrespondingSourceObject: {fileID: 0}
  m_PrefabInstance: {fileID: 0}
  m_PrefabAsset: {fileID: 0}
  serializedVersion: 6
  m_Component:
  - component: {fileID: 3508050195214243792}
  - component: {fileID: 3991097896205511217}
  m_Layer: 0
  m_Name: Tiled_Floor_CommonFloor5x5
  m_TagString: Untagged
  m_Icon: {fileID: 0}
  m_NavMeshLayer: 0
  m_StaticEditorFlags: 0
  m_IsActive: 1
--- !u!4 &3508050195214243792
Transform:
  m_ObjectHideFlags: 0
  m_CorrespondingSourceObject: {fileID: 0}
  m_PrefabInstance: {fileID: 0}
  m_PrefabAsset: {fileID: 0}
  m_GameObject: {fileID: 7612730297884102174}
  m_LocalRotation: {x: 0, y: 0, z: 0, w: 1}
  m_LocalPosition: {x: 0, y: 0, z: 0}
  m_LocalScale: {x: 1, y: 1, z: 1}
  m_Children:
  - {fileID: 949752432528802814}
  m_Father: {fileID: 0}
  m_RootOrder: 0
  m_LocalEulerAnglesHint: {x: 0, y: 0, z: 0}
--- !u!114 &3991097896205511217
MonoBehaviour:
  m_ObjectHideFlags: 0
  m_CorrespondingSourceObject: {fileID: 0}
  m_PrefabInstance: {fileID: 0}
  m_PrefabAsset: {fileID: 0}
  m_GameObject: {fileID: 7612730297884102174}
  m_Enabled: 1
  m_EditorHideFlags: 0
  m_Script: {fileID: 11500000, guid: a3cf5643e9d940c48824c28d366c080b, type: 3}
  m_Name: 
  m_EditorClassIdentifier: 
--- !u!1001 &5088677883145950535
PrefabInstance:
  m_ObjectHideFlags: 0
  serializedVersion: 2
  m_Modification:
    m_TransformParent: {fileID: 3508050195214243792}
    m_Modifications:
    - target: {fileID: 4682476907802659843, guid: 60d0679cf97c8fc4a9f387ea39f4401a, type: 3}
      propertyPath: m_Name
      value: Common_Floor_5x5
      objectReference: {fileID: 0}
    - target: {fileID: 5454051961844029113, guid: 60d0679cf97c8fc4a9f387ea39f4401a, type: 3}
      propertyPath: m_RootOrder
      value: 0
      objectReference: {fileID: 0}
    - target: {fileID: 5454051961844029113, guid: 60d0679cf97c8fc4a9f387ea39f4401a, type: 3}
      propertyPath: m_LocalPosition.x
      value: 4.5
      objectReference: {fileID: 0}
    - target: {fileID: 5454051961844029113, guid: 60d0679cf97c8fc4a9f387ea39f4401a, type: 3}
      propertyPath: m_LocalPosition.y
      value: -0.0018607744
      objectReference: {fileID: 0}
    - target: {fileID: 5454051961844029113, guid: 60d0679cf97c8fc4a9f387ea39f4401a, type: 3}
      propertyPath: m_LocalPosition.z
      value: 0.5000105
      objectReference: {fileID: 0}
    - target: {fileID: 5454051961844029113, guid: 60d0679cf97c8fc4a9f387ea39f4401a, type: 3}
      propertyPath: m_LocalRotation.w
      value: 0.7071066
      objectReference: {fileID: 0}
    - target: {fileID: 5454051961844029113, guid: 60d0679cf97c8fc4a9f387ea39f4401a, type: 3}
      propertyPath: m_LocalRotation.x
      value: -0.707107
      objectReference: {fileID: 0}
    - target: {fileID: 5454051961844029113, guid: 60d0679cf97c8fc4a9f387ea39f4401a, type: 3}
      propertyPath: m_LocalRotation.y
      value: -0
      objectReference: {fileID: 0}
    - target: {fileID: 5454051961844029113, guid: 60d0679cf97c8fc4a9f387ea39f4401a, type: 3}
      propertyPath: m_LocalRotation.z
      value: -0
      objectReference: {fileID: 0}
    - target: {fileID: 5454051961844029113, guid: 60d0679cf97c8fc4a9f387ea39f4401a, type: 3}
      propertyPath: m_LocalEulerAnglesHint.x
      value: -90
      objectReference: {fileID: 0}
    - target: {fileID: 5454051961844029113, guid: 60d0679cf97c8fc4a9f387ea39f4401a, type: 3}
      propertyPath: m_LocalEulerAnglesHint.y
      value: 0
      objectReference: {fileID: 0}
    - target: {fileID: 5454051961844029113, guid: 60d0679cf97c8fc4a9f387ea39f4401a, type: 3}
      propertyPath: m_LocalEulerAnglesHint.z
      value: 0
      objectReference: {fileID: 0}
    m_RemovedComponents: []
  m_SourcePrefab: {fileID: 100100000, guid: 60d0679cf97c8fc4a9f387ea39f4401a, type: 3}
--- !u!4 &949752432528802814 stripped
Transform:
  m_CorrespondingSourceObject: {fileID: 5454051961844029113, guid: 60d0679cf97c8fc4a9f387ea39f4401a, type: 3}
  m_PrefabInstance: {fileID: 5088677883145950535}
  m_PrefabAsset: {fileID: 0}
