%YAML 1.1
%TAG !u! tag:unity3d.com,2011:
--- !u!1 &8936423695205611460
GameObject:
  m_ObjectHideFlags: 0
  m_CorrespondingSourceObject: {fileID: 0}
  m_PrefabInstance: {fileID: 0}
  m_PrefabAsset: {fileID: 0}
  serializedVersion: 6
  m_Component:
  - component: {fileID: 2670158280996515338}
  - component: {fileID: 2504684996388852715}
  m_Layer: 0
  m_Name: Tiled_Floor_CommonFloor2x4
  m_TagString: Untagged
  m_Icon: {fileID: 0}
  m_NavMeshLayer: 0
  m_StaticEditorFlags: 0
  m_IsActive: 1
--- !u!4 &2670158280996515338
Transform:
  m_ObjectHideFlags: 0
  m_CorrespondingSourceObject: {fileID: 0}
  m_PrefabInstance: {fileID: 0}
  m_PrefabAsset: {fileID: 0}
  m_GameObject: {fileID: 8936423695205611460}
  m_LocalRotation: {x: 0, y: 0, z: 0, w: 1}
  m_LocalPosition: {x: 0, y: 0, z: 0}
  m_LocalScale: {x: 1, y: 1, z: 1}
  m_Children:
  - {fileID: 2599847172890550431}
  m_Father: {fileID: 0}
  m_RootOrder: 0
  m_LocalEulerAnglesHint: {x: 0, y: 0, z: 0}
--- !u!114 &2504684996388852715
MonoBehaviour:
  m_ObjectHideFlags: 0
  m_CorrespondingSourceObject: {fileID: 0}
  m_PrefabInstance: {fileID: 0}
  m_PrefabAsset: {fileID: 0}
  m_GameObject: {fileID: 8936423695205611460}
  m_Enabled: 1
  m_EditorHideFlags: 0
  m_Script: {fileID: 11500000, guid: a3cf5643e9d940c48824c28d366c080b, type: 3}
  m_Name: 
  m_EditorClassIdentifier: 
--- !u!1001 &5998735661734081913
PrefabInstance:
  m_ObjectHideFlags: 0
  serializedVersion: 2
  m_Modification:
    m_TransformParent: {fileID: 2670158280996515338}
    m_Modifications:
    - target: {fileID: 8587037892399945190, guid: 46ffbb6186d0fac49a0ef74104690769, type: 3}
      propertyPath: m_RootOrder
      value: 0
      objectReference: {fileID: 0}
    - target: {fileID: 8587037892399945190, guid: 46ffbb6186d0fac49a0ef74104690769, type: 3}
      propertyPath: m_LocalPosition.x
      value: 1.4999999
      objectReference: {fileID: 0}
    - target: {fileID: 8587037892399945190, guid: 46ffbb6186d0fac49a0ef74104690769, type: 3}
      propertyPath: m_LocalPosition.y
      value: -0.0018577456
      objectReference: {fileID: 0}
    - target: {fileID: 8587037892399945190, guid: 46ffbb6186d0fac49a0ef74104690769, type: 3}
      propertyPath: m_LocalPosition.z
      value: 0.5000067
      objectReference: {fileID: 0}
    - target: {fileID: 8587037892399945190, guid: 46ffbb6186d0fac49a0ef74104690769, type: 3}
      propertyPath: m_LocalRotation.w
      value: 0.7071069
      objectReference: {fileID: 0}
    - target: {fileID: 8587037892399945190, guid: 46ffbb6186d0fac49a0ef74104690769, type: 3}
      propertyPath: m_LocalRotation.x
      value: -0.7071067
      objectReference: {fileID: 0}
    - target: {fileID: 8587037892399945190, guid: 46ffbb6186d0fac49a0ef74104690769, type: 3}
      propertyPath: m_LocalRotation.y
      value: -0
      objectReference: {fileID: 0}
    - target: {fileID: 8587037892399945190, guid: 46ffbb6186d0fac49a0ef74104690769, type: 3}
      propertyPath: m_LocalRotation.z
      value: -0
      objectReference: {fileID: 0}
    - target: {fileID: 8587037892399945190, guid: 46ffbb6186d0fac49a0ef74104690769, type: 3}
      propertyPath: m_LocalEulerAnglesHint.x
      value: -90
      objectReference: {fileID: 0}
    - target: {fileID: 8587037892399945190, guid: 46ffbb6186d0fac49a0ef74104690769, type: 3}
      propertyPath: m_LocalEulerAnglesHint.y
      value: 0
      objectReference: {fileID: 0}
    - target: {fileID: 8587037892399945190, guid: 46ffbb6186d0fac49a0ef74104690769, type: 3}
      propertyPath: m_LocalEulerAnglesHint.z
      value: 0
      objectReference: {fileID: 0}
    - target: {fileID: 8962332424543473500, guid: 46ffbb6186d0fac49a0ef74104690769, type: 3}
      propertyPath: m_Name
      value: Common_Floor_2x4
      objectReference: {fileID: 0}
    m_RemovedComponents: []
  m_SourcePrefab: {fileID: 100100000, guid: 46ffbb6186d0fac49a0ef74104690769, type: 3}
--- !u!4 &2599847172890550431 stripped
Transform:
  m_CorrespondingSourceObject: {fileID: 8587037892399945190, guid: 46ffbb6186d0fac49a0ef74104690769, type: 3}
  m_PrefabInstance: {fileID: 5998735661734081913}
  m_PrefabAsset: {fileID: 0}
