%YAML 1.1
%TAG !u! tag:unity3d.com,2011:
--- !u!1 &518735907875783293
GameObject:
  m_ObjectHideFlags: 0
  m_CorrespondingSourceObject: {fileID: 0}
  m_PrefabInstance: {fileID: 0}
  m_PrefabAsset: {fileID: 0}
  serializedVersion: 6
  m_Component:
  - component: {fileID: 6789223994335517619}
  - component: {fileID: 6481814784838870610}
  m_Layer: 0
  m_Name: Tiled_Floor_SquareFloor4x4
  m_TagString: Untagged
  m_Icon: {fileID: 0}
  m_NavMeshLayer: 0
  m_StaticEditorFlags: 0
  m_IsActive: 1
--- !u!4 &6789223994335517619
Transform:
  m_ObjectHideFlags: 0
  m_CorrespondingSourceObject: {fileID: 0}
  m_PrefabInstance: {fileID: 0}
  m_PrefabAsset: {fileID: 0}
  m_GameObject: {fileID: 518735907875783293}
  m_LocalRotation: {x: 0, y: 0, z: 0, w: 1}
  m_LocalPosition: {x: 0, y: 0, z: 0}
  m_LocalScale: {x: 1, y: 1, z: 1}
  m_Children:
  - {fileID: 7233340267062229203}
  m_Father: {fileID: 0}
  m_RootOrder: 0
  m_LocalEulerAnglesHint: {x: 0, y: 0, z: 0}
--- !u!114 &6481814784838870610
MonoBehaviour:
  m_ObjectHideFlags: 0
  m_CorrespondingSourceObject: {fileID: 0}
  m_PrefabInstance: {fileID: 0}
  m_PrefabAsset: {fileID: 0}
  m_GameObject: {fileID: 518735907875783293}
  m_Enabled: 1
  m_EditorHideFlags: 0
  m_Script: {fileID: 11500000, guid: a3cf5643e9d940c48824c28d366c080b, type: 3}
  m_Name: 
  m_EditorClassIdentifier: 
--- !u!1001 &2885030287592643503
PrefabInstance:
  m_ObjectHideFlags: 0
  serializedVersion: 2
  m_Modification:
    m_TransformParent: {fileID: 6789223994335517619}
    m_Modifications:
    - target: {fileID: 5126085697727789510, guid: 2a231f923cc53304aa1ff0b00c3e9eac, type: 3}
      propertyPath: m_Name
      value: Square_Floor_4x4
      objectReference: {fileID: 0}
    - target: {fileID: 5505742237582369660, guid: 2a231f923cc53304aa1ff0b00c3e9eac, type: 3}
      propertyPath: m_RootOrder
      value: 0
      objectReference: {fileID: 0}
    - target: {fileID: 5505742237582369660, guid: 2a231f923cc53304aa1ff0b00c3e9eac, type: 3}
      propertyPath: m_LocalPosition.x
      value: 3.5
      objectReference: {fileID: 0}
    - target: {fileID: 5505742237582369660, guid: 2a231f923cc53304aa1ff0b00c3e9eac, type: 3}
      propertyPath: m_LocalPosition.y
      value: 0
      objectReference: {fileID: 0}
    - target: {fileID: 5505742237582369660, guid: 2a231f923cc53304aa1ff0b00c3e9eac, type: 3}
      propertyPath: m_LocalPosition.z
      value: 0.49999642
      objectReference: {fileID: 0}
    - target: {fileID: 5505742237582369660, guid: 2a231f923cc53304aa1ff0b00c3e9eac, type: 3}
      propertyPath: m_LocalRotation.w
      value: 0.70710695
      objectReference: {fileID: 0}
    - target: {fileID: 5505742237582369660, guid: 2a231f923cc53304aa1ff0b00c3e9eac, type: 3}
      propertyPath: m_LocalRotation.x
      value: -0.7071067
      objectReference: {fileID: 0}
    - target: {fileID: 5505742237582369660, guid: 2a231f923cc53304aa1ff0b00c3e9eac, type: 3}
      propertyPath: m_LocalRotation.y
      value: -0
      objectReference: {fileID: 0}
    - target: {fileID: 5505742237582369660, guid: 2a231f923cc53304aa1ff0b00c3e9eac, type: 3}
      propertyPath: m_LocalRotation.z
      value: -0
      objectReference: {fileID: 0}
    - target: {fileID: 5505742237582369660, guid: 2a231f923cc53304aa1ff0b00c3e9eac, type: 3}
      propertyPath: m_LocalEulerAnglesHint.x
      value: -90
      objectReference: {fileID: 0}
    - target: {fileID: 5505742237582369660, guid: 2a231f923cc53304aa1ff0b00c3e9eac, type: 3}
      propertyPath: m_LocalEulerAnglesHint.y
      value: 0
      objectReference: {fileID: 0}
    - target: {fileID: 5505742237582369660, guid: 2a231f923cc53304aa1ff0b00c3e9eac, type: 3}
      propertyPath: m_LocalEulerAnglesHint.z
      value: 0
      objectReference: {fileID: 0}
    m_RemovedComponents: []
  m_SourcePrefab: {fileID: 100100000, guid: 2a231f923cc53304aa1ff0b00c3e9eac, type: 3}
--- !u!4 &7233340267062229203 stripped
Transform:
  m_CorrespondingSourceObject: {fileID: 5505742237582369660, guid: 2a231f923cc53304aa1ff0b00c3e9eac, type: 3}
  m_PrefabInstance: {fileID: 2885030287592643503}
  m_PrefabAsset: {fileID: 0}
