%YAML 1.1
%TAG !u! tag:unity3d.com,2011:
--- !u!114 &11400000
MonoBehaviour:
  m_ObjectHideFlags: 0
  m_CorrespondingSourceObject: {fileID: 0}
  m_PrefabInstance: {fileID: 0}
  m_PrefabAsset: {fileID: 0}
  m_GameObject: {fileID: 0}
  m_Enabled: 1
  m_EditorHideFlags: 0
  m_Script: {fileID: 11500000, guid: 3a02fff447c6ed84b943b1d05661d745, type: 3}
  m_Name: TiledAsset_Floor_CommonFloor3x8
  m_EditorClassIdentifier: 
  nameString: Common Floor 3x8
  prefab: {fileID: 1793376463982958852, guid: 663f010a2338bbd448a2a409bd2c99dc, type: 3}
  visual: {fileID: 4749497344481837258, guid: 663f010a2338bbd448a2a409bd2c99dc, type: 3}
  optionalVisual: {fileID: 0}
  width: 3
  height: 8
