%YAML 1.1
%TAG !u! tag:unity3d.com,2011:
--- !u!114 &11400000
MonoBehaviour:
  m_ObjectHideFlags: 0
  m_CorrespondingSourceObject: {fileID: 0}
  m_PrefabInstance: {fileID: 0}
  m_PrefabAsset: {fileID: 0}
  m_GameObject: {fileID: 0}
  m_Enabled: 1
  m_EditorHideFlags: 0
  m_Script: {fileID: 11500000, guid: 3a02fff447c6ed84b943b1d05661d745, type: 3}
  m_Name: TiledAsset_Floor_SquareFloor4x4
  m_EditorClassIdentifier: 
  nameString: Square Floor 4x4
  prefab: {fileID: 6789223994335517619, guid: 3d3593ed0b6ea4145b82281974695c4a, type: 3}
  visual: {fileID: 518735907875783293, guid: 3d3593ed0b6ea4145b82281974695c4a, type: 3}
  optionalVisual: {fileID: 0}
  width: 4
  height: 4
