%YAML 1.1
%TAG !u! tag:unity3d.com,2011:
--- !u!114 &11400000
MonoBehaviour:
  m_ObjectHideFlags: 0
  m_CorrespondingSourceObject: {fileID: 0}
  m_PrefabInstance: {fileID: 0}
  m_PrefabAsset: {fileID: 0}
  m_GameObject: {fileID: 0}
  m_Enabled: 1
  m_EditorHideFlags: 0
  m_Script: {fileID: 11500000, guid: 3a02fff447c6ed84b943b1d05661d745, type: 3}
  m_Name: TiledAsset_Floor_CommonFloor4x4
  m_EditorClassIdentifier: 
  nameString: Common Floor 4x4
  prefab: {fileID: 4436358569663682580, guid: 7580a82d0dd0b0b40b3ddc1c02a52002, type: 3}
  visual: {fileID: 7249630272391479770, guid: 7580a82d0dd0b0b40b3ddc1c02a52002, type: 3}
  optionalVisual: {fileID: 0}
  width: 4
  height: 4
