%YAML 1.1
%TAG !u! tag:unity3d.com,2011:
--- !u!114 &11400000
MonoBehaviour:
  m_ObjectHideFlags: 0
  m_CorrespondingSourceObject: {fileID: 0}
  m_PrefabInstance: {fileID: 0}
  m_PrefabAsset: {fileID: 0}
  m_GameObject: {fileID: 0}
  m_Enabled: 1
  m_EditorHideFlags: 0
  m_Script: {fileID: 11500000, guid: 3a02fff447c6ed84b943b1d05661d745, type: 3}
  m_Name: TiledAsset_Normal_Floor_BigSquare
  m_EditorClassIdentifier: 
  nameString: Big Square (Normal)
  prefab: {fileID: 7610242706302737183, guid: 7925934b608bc8b499bca4e9c8c5503b, type: 3}
  visual: {fileID: 2386169258232010567, guid: 7925934b608bc8b499bca4e9c8c5503b, type: 3}
  optionalVisual: {fileID: 0}
  width: 1
  height: 1
