%YAML 1.1
%TAG !u! tag:unity3d.com,2011:
--- !u!1 &781177913276606261
GameObject:
  m_ObjectHideFlags: 0
  m_CorrespondingSourceObject: {fileID: 0}
  m_PrefabInstance: {fileID: 0}
  m_PrefabAsset: {fileID: 0}
  serializedVersion: 6
  m_Component:
  - component: {fileID: 1440746536084555654}
  m_Layer: 0
  m_Name: Pivot
  m_TagString: Untagged
  m_Icon: {fileID: 0}
  m_NavMeshLayer: 0
  m_StaticEditorFlags: 0
  m_IsActive: 1
--- !u!4 &1440746536084555654
Transform:
  m_ObjectHideFlags: 0
  m_CorrespondingSourceObject: {fileID: 0}
  m_PrefabInstance: {fileID: 0}
  m_PrefabAsset: {fileID: 0}
  m_GameObject: {fileID: 781177913276606261}
  m_LocalRotation: {x: 0, y: 0, z: 0, w: 1}
  m_LocalPosition: {x: 0.25, y: 0.02, z: 0.25}
  m_LocalScale: {x: 1, y: 1, z: 1}
  m_Children:
  - {fileID: 8650863000931842591}
  m_Father: {fileID: 8582238936679181957}
  m_RootOrder: 0
  m_LocalEulerAnglesHint: {x: 0, y: 0, z: 0}
--- !u!1 &8159409322118207843
GameObject:
  m_ObjectHideFlags: 0
  m_CorrespondingSourceObject: {fileID: 0}
  m_PrefabInstance: {fileID: 0}
  m_PrefabAsset: {fileID: 0}
  serializedVersion: 6
  m_Component:
  - component: {fileID: 8582238936679181957}
  - component: {fileID: 1096897724312006894}
  m_Layer: 0
  m_Name: Tiled_Decor_Blood_Floor_Crawled_30Degrees
  m_TagString: Untagged
  m_Icon: {fileID: 0}
  m_NavMeshLayer: 0
  m_StaticEditorFlags: 0
  m_IsActive: 1
--- !u!4 &8582238936679181957
Transform:
  m_ObjectHideFlags: 0
  m_CorrespondingSourceObject: {fileID: 0}
  m_PrefabInstance: {fileID: 0}
  m_PrefabAsset: {fileID: 0}
  m_GameObject: {fileID: 8159409322118207843}
  m_LocalRotation: {x: 0, y: 0, z: 0, w: 1}
  m_LocalPosition: {x: 0, y: 0, z: 0}
  m_LocalScale: {x: 1, y: 1, z: 1}
  m_Children:
  - {fileID: 1440746536084555654}
  m_Father: {fileID: 0}
  m_RootOrder: 0
  m_LocalEulerAnglesHint: {x: 0, y: 0, z: 0}
--- !u!114 &1096897724312006894
MonoBehaviour:
  m_ObjectHideFlags: 0
  m_CorrespondingSourceObject: {fileID: 0}
  m_PrefabInstance: {fileID: 0}
  m_PrefabAsset: {fileID: 0}
  m_GameObject: {fileID: 8159409322118207843}
  m_Enabled: 1
  m_EditorHideFlags: 0
  m_Script: {fileID: 11500000, guid: a3cf5643e9d940c48824c28d366c080b, type: 3}
  m_Name: 
  m_EditorClassIdentifier: 
--- !u!1001 &6462787584004446206
PrefabInstance:
  m_ObjectHideFlags: 0
  serializedVersion: 2
  m_Modification:
    m_TransformParent: {fileID: 1440746536084555654}
    m_Modifications:
    - target: {fileID: 2431491900851580385, guid: 4938d1c6613561a41a92eaec2533103f, type: 3}
      propertyPath: m_RootOrder
      value: 0
      objectReference: {fileID: 0}
    - target: {fileID: 2431491900851580385, guid: 4938d1c6613561a41a92eaec2533103f, type: 3}
      propertyPath: m_LocalScale.x
      value: 2.3610198
      objectReference: {fileID: 0}
    - target: {fileID: 2431491900851580385, guid: 4938d1c6613561a41a92eaec2533103f, type: 3}
      propertyPath: m_LocalScale.y
      value: 1.6937001
      objectReference: {fileID: 0}
    - target: {fileID: 2431491900851580385, guid: 4938d1c6613561a41a92eaec2533103f, type: 3}
      propertyPath: m_LocalScale.z
      value: 1.6937
      objectReference: {fileID: 0}
    - target: {fileID: 2431491900851580385, guid: 4938d1c6613561a41a92eaec2533103f, type: 3}
      propertyPath: m_LocalPosition.x
      value: 0
      objectReference: {fileID: 0}
    - target: {fileID: 2431491900851580385, guid: 4938d1c6613561a41a92eaec2533103f, type: 3}
      propertyPath: m_LocalPosition.y
      value: 0
      objectReference: {fileID: 0}
    - target: {fileID: 2431491900851580385, guid: 4938d1c6613561a41a92eaec2533103f, type: 3}
      propertyPath: m_LocalPosition.z
      value: 0
      objectReference: {fileID: 0}
    - target: {fileID: 2431491900851580385, guid: 4938d1c6613561a41a92eaec2533103f, type: 3}
      propertyPath: m_LocalRotation.w
      value: 0.6830127
      objectReference: {fileID: 0}
    - target: {fileID: 2431491900851580385, guid: 4938d1c6613561a41a92eaec2533103f, type: 3}
      propertyPath: m_LocalRotation.x
      value: 0.6830127
      objectReference: {fileID: 0}
    - target: {fileID: 2431491900851580385, guid: 4938d1c6613561a41a92eaec2533103f, type: 3}
      propertyPath: m_LocalRotation.y
      value: -0.18301274
      objectReference: {fileID: 0}
    - target: {fileID: 2431491900851580385, guid: 4938d1c6613561a41a92eaec2533103f, type: 3}
      propertyPath: m_LocalRotation.z
      value: 0.18301274
      objectReference: {fileID: 0}
    - target: {fileID: 2431491900851580385, guid: 4938d1c6613561a41a92eaec2533103f, type: 3}
      propertyPath: m_LocalEulerAnglesHint.x
      value: 90
      objectReference: {fileID: 0}
    - target: {fileID: 2431491900851580385, guid: 4938d1c6613561a41a92eaec2533103f, type: 3}
      propertyPath: m_LocalEulerAnglesHint.y
      value: 0
      objectReference: {fileID: 0}
    - target: {fileID: 2431491900851580385, guid: 4938d1c6613561a41a92eaec2533103f, type: 3}
      propertyPath: m_LocalEulerAnglesHint.z
      value: 30
      objectReference: {fileID: 0}
    - target: {fileID: 2431491900851580389, guid: 4938d1c6613561a41a92eaec2533103f, type: 3}
      propertyPath: m_Name
      value: Crawled_BloodDecal
      objectReference: {fileID: 0}
    - target: {fileID: 2431491900851580389, guid: 4938d1c6613561a41a92eaec2533103f, type: 3}
      propertyPath: m_IsActive
      value: 1
      objectReference: {fileID: 0}
    m_RemovedComponents: []
  m_SourcePrefab: {fileID: 100100000, guid: 4938d1c6613561a41a92eaec2533103f, type: 3}
--- !u!4 &8650863000931842591 stripped
Transform:
  m_CorrespondingSourceObject: {fileID: 2431491900851580385, guid: 4938d1c6613561a41a92eaec2533103f, type: 3}
  m_PrefabInstance: {fileID: 6462787584004446206}
  m_PrefabAsset: {fileID: 0}
