%YAML 1.1
%TAG !u! tag:unity3d.com,2011:
--- !u!114 &11400000
MonoBehaviour:
  m_ObjectHideFlags: 0
  m_CorrespondingSourceObject: {fileID: 0}
  m_PrefabInstance: {fileID: 0}
  m_PrefabAsset: {fileID: 0}
  m_GameObject: {fileID: 0}
  m_Enabled: 1
  m_EditorHideFlags: 0
  m_Script: {fileID: 11500000, guid: 3a02fff447c6ed84b943b1d05661d745, type: 3}
  m_Name: TiledAsset_Decor_InnerPipes_IntoWall_Left
  m_EditorClassIdentifier: 
  nameString: Into Wall (Left)
  prefab: {fileID: 3833138667047213172, guid: b2a11e838deabd34fa83b2e8454e4b72, type: 3}
  visual: {fileID: 6100416982228851620, guid: b2a11e838deabd34fa83b2e8454e4b72, type: 3}
  optionalVisual: {fileID: 0}
  width: 1
  height: 1
