%YAML 1.1
%TAG !u! tag:unity3d.com,2011:
--- !u!114 &11400000
MonoBehaviour:
  m_ObjectHideFlags: 0
  m_CorrespondingSourceObject: {fileID: 0}
  m_PrefabInstance: {fileID: 0}
  m_PrefabAsset: {fileID: 0}
  m_GameObject: {fileID: 0}
  m_Enabled: 1
  m_EditorHideFlags: 0
  m_Script: {fileID: 11500000, guid: 3a02fff447c6ed84b943b1d05661d745, type: 3}
  m_Name: TiledAsset_Decor_InnerPipes_Extension4
  m_EditorClassIdentifier: 
  nameString: Extension 4
  prefab: {fileID: 1989647538709654324, guid: 5e32de903bc0b1a49a3811ae9faf67e1, type: 3}
  visual: {fileID: 8793179619234670820, guid: 5e32de903bc0b1a49a3811ae9faf67e1, type: 3}
  optionalVisual: {fileID: 0}
  width: 4
  height: 1
