%YAML 1.1
%TAG !u! tag:unity3d.com,2011:
--- !u!1 &7215067775108190830
GameObject:
  m_ObjectHideFlags: 0
  m_CorrespondingSourceObject: {fileID: 0}
  m_PrefabInstance: {fileID: 0}
  m_PrefabAsset: {fileID: 0}
  serializedVersion: 6
  m_Component:
  - component: {fileID: 7215067775108190828}
  - component: {fileID: 7215067775108190831}
  m_Layer: 0
  m_Name: Tiled_Floor_Emissive_4Triangles
  m_TagString: Untagged
  m_Icon: {fileID: 0}
  m_NavMeshLayer: 0
  m_StaticEditorFlags: 0
  m_IsActive: 1
--- !u!4 &7215067775108190828
Transform:
  m_ObjectHideFlags: 0
  m_CorrespondingSourceObject: {fileID: 0}
  m_PrefabInstance: {fileID: 0}
  m_PrefabAsset: {fileID: 0}
  m_GameObject: {fileID: 7215067775108190830}
  m_LocalRotation: {x: 0, y: 0, z: 0, w: 1}
  m_LocalPosition: {x: 0, y: 0, z: 0}
  m_LocalScale: {x: 1, y: 1, z: 1}
  m_Children:
  - {fileID: 7572114771364769329}
  m_Father: {fileID: 0}
  m_RootOrder: 0
  m_LocalEulerAnglesHint: {x: 0, y: 0, z: 0}
--- !u!114 &7215067775108190831
MonoBehaviour:
  m_ObjectHideFlags: 0
  m_CorrespondingSourceObject: {fileID: 0}
  m_PrefabInstance: {fileID: 0}
  m_PrefabAsset: {fileID: 0}
  m_GameObject: {fileID: 7215067775108190830}
  m_Enabled: 1
  m_EditorHideFlags: 0
  m_Script: {fileID: 11500000, guid: a3cf5643e9d940c48824c28d366c080b, type: 3}
  m_Name: 
  m_EditorClassIdentifier: 
--- !u!1001 &7215067775650663968
PrefabInstance:
  m_ObjectHideFlags: 0
  serializedVersion: 2
  m_Modification:
    m_TransformParent: {fileID: 7215067775108190828}
    m_Modifications:
    - target: {fileID: 951560992023240721, guid: e322bb196de7a7945acb7635cbf8d2c0, type: 3}
      propertyPath: m_RootOrder
      value: 0
      objectReference: {fileID: 0}
    - target: {fileID: 951560992023240721, guid: e322bb196de7a7945acb7635cbf8d2c0, type: 3}
      propertyPath: m_LocalPosition.x
      value: 3.249988
      objectReference: {fileID: 0}
    - target: {fileID: 951560992023240721, guid: e322bb196de7a7945acb7635cbf8d2c0, type: 3}
      propertyPath: m_LocalPosition.y
      value: 0
      objectReference: {fileID: 0}
    - target: {fileID: 951560992023240721, guid: e322bb196de7a7945acb7635cbf8d2c0, type: 3}
      propertyPath: m_LocalPosition.z
      value: 3.0500002
      objectReference: {fileID: 0}
    - target: {fileID: 951560992023240721, guid: e322bb196de7a7945acb7635cbf8d2c0, type: 3}
      propertyPath: m_LocalRotation.w
      value: 0.7071068
      objectReference: {fileID: 0}
    - target: {fileID: 951560992023240721, guid: e322bb196de7a7945acb7635cbf8d2c0, type: 3}
      propertyPath: m_LocalRotation.x
      value: -0.7071068
      objectReference: {fileID: 0}
    - target: {fileID: 951560992023240721, guid: e322bb196de7a7945acb7635cbf8d2c0, type: 3}
      propertyPath: m_LocalRotation.y
      value: -0
      objectReference: {fileID: 0}
    - target: {fileID: 951560992023240721, guid: e322bb196de7a7945acb7635cbf8d2c0, type: 3}
      propertyPath: m_LocalRotation.z
      value: -0
      objectReference: {fileID: 0}
    - target: {fileID: 951560992023240721, guid: e322bb196de7a7945acb7635cbf8d2c0, type: 3}
      propertyPath: m_LocalEulerAnglesHint.x
      value: 0
      objectReference: {fileID: 0}
    - target: {fileID: 951560992023240721, guid: e322bb196de7a7945acb7635cbf8d2c0, type: 3}
      propertyPath: m_LocalEulerAnglesHint.y
      value: 0
      objectReference: {fileID: 0}
    - target: {fileID: 951560992023240721, guid: e322bb196de7a7945acb7635cbf8d2c0, type: 3}
      propertyPath: m_LocalEulerAnglesHint.z
      value: 0
      objectReference: {fileID: 0}
    - target: {fileID: 7861102916486054393, guid: e322bb196de7a7945acb7635cbf8d2c0, type: 3}
      propertyPath: m_Name
      value: Floor 4 triangles (1)
      objectReference: {fileID: 0}
    m_RemovedComponents: []
  m_SourcePrefab: {fileID: 100100000, guid: e322bb196de7a7945acb7635cbf8d2c0, type: 3}
--- !u!4 &7572114771364769329 stripped
Transform:
  m_CorrespondingSourceObject: {fileID: 951560992023240721, guid: e322bb196de7a7945acb7635cbf8d2c0, type: 3}
  m_PrefabInstance: {fileID: 7215067775650663968}
  m_PrefabAsset: {fileID: 0}
