%YAML 1.1
%TAG !u! tag:unity3d.com,2011:
--- !u!114 &11400000
MonoBehaviour:
  m_ObjectHideFlags: 0
  m_CorrespondingSourceObject: {fileID: 0}
  m_PrefabInstance: {fileID: 0}
  m_PrefabAsset: {fileID: 0}
  m_GameObject: {fileID: 0}
  m_Enabled: 1
  m_EditorHideFlags: 0
  m_Script: {fileID: 11500000, guid: 3a02fff447c6ed84b943b1d05661d745, type: 3}
  m_Name: TiledAsset_Emissive_Floor_SixPackSquare
  m_EditorClassIdentifier: 
  nameString: Six pack square (Emissive)
  prefab: {fileID: 4436566062838705155, guid: 5feafd2ad7835df459dabfbdd28a9252, type: 3}
  visual: {fileID: 4436566062838705153, guid: 5feafd2ad7835df459dabfbdd28a9252, type: 3}
  optionalVisual: {fileID: 0}
  width: 2
  height: 3
