%YAML 1.1
%TAG !u! tag:unity3d.com,2011:
--- !u!1 &5706975666055904536
GameObject:
  m_ObjectHideFlags: 0
  m_CorrespondingSourceObject: {fileID: 0}
  m_PrefabInstance: {fileID: 0}
  m_PrefabAsset: {fileID: 0}
  serializedVersion: 6
  m_Component:
  - component: {fileID: 1601452904190780630}
  - component: {fileID: 1294120352209721655}
  m_Layer: 0
  m_Name: Tiled_Floor_Emissive_2Triangles
  m_TagString: Untagged
  m_Icon: {fileID: 0}
  m_NavMeshLayer: 0
  m_StaticEditorFlags: 0
  m_IsActive: 1
--- !u!4 &1601452904190780630
Transform:
  m_ObjectHideFlags: 0
  m_CorrespondingSourceObject: {fileID: 0}
  m_PrefabInstance: {fileID: 0}
  m_PrefabAsset: {fileID: 0}
  m_GameObject: {fileID: 5706975666055904536}
  m_LocalRotation: {x: 0, y: 0, z: 0, w: 1}
  m_LocalPosition: {x: 0, y: 0, z: 0}
  m_LocalScale: {x: 1, y: 1, z: 1}
  m_Children:
  - {fileID: 9136834904571043247}
  m_Father: {fileID: 0}
  m_RootOrder: 0
  m_LocalEulerAnglesHint: {x: 0, y: 0, z: 0}
--- !u!114 &1294120352209721655
MonoBehaviour:
  m_ObjectHideFlags: 0
  m_CorrespondingSourceObject: {fileID: 0}
  m_PrefabInstance: {fileID: 0}
  m_PrefabAsset: {fileID: 0}
  m_GameObject: {fileID: 5706975666055904536}
  m_Enabled: 1
  m_EditorHideFlags: 0
  m_Script: {fileID: 11500000, guid: a3cf5643e9d940c48824c28d366c080b, type: 3}
  m_Name: 
  m_EditorClassIdentifier: 
--- !u!1001 &7590121058797451205
PrefabInstance:
  m_ObjectHideFlags: 0
  serializedVersion: 2
  m_Modification:
    m_TransformParent: {fileID: 1601452904190780630}
    m_Modifications:
    - target: {fileID: 1270262801188766367, guid: 63bd0446d14dc8a40a1cf52d0711257a, type: 3}
      propertyPath: m_Name
      value: Floor 2 triangles
      objectReference: {fileID: 0}
    - target: {fileID: 1700399183242832490, guid: 63bd0446d14dc8a40a1cf52d0711257a, type: 3}
      propertyPath: m_RootOrder
      value: 0
      objectReference: {fileID: 0}
    - target: {fileID: 1700399183242832490, guid: 63bd0446d14dc8a40a1cf52d0711257a, type: 3}
      propertyPath: m_LocalPosition.x
      value: 2.0054524
      objectReference: {fileID: 0}
    - target: {fileID: 1700399183242832490, guid: 63bd0446d14dc8a40a1cf52d0711257a, type: 3}
      propertyPath: m_LocalPosition.y
      value: 0.00000024354085
      objectReference: {fileID: 0}
    - target: {fileID: 1700399183242832490, guid: 63bd0446d14dc8a40a1cf52d0711257a, type: 3}
      propertyPath: m_LocalPosition.z
      value: 3.0435448
      objectReference: {fileID: 0}
    - target: {fileID: 1700399183242832490, guid: 63bd0446d14dc8a40a1cf52d0711257a, type: 3}
      propertyPath: m_LocalRotation.w
      value: 0.7071068
      objectReference: {fileID: 0}
    - target: {fileID: 1700399183242832490, guid: 63bd0446d14dc8a40a1cf52d0711257a, type: 3}
      propertyPath: m_LocalRotation.x
      value: -0.7071068
      objectReference: {fileID: 0}
    - target: {fileID: 1700399183242832490, guid: 63bd0446d14dc8a40a1cf52d0711257a, type: 3}
      propertyPath: m_LocalRotation.y
      value: -0
      objectReference: {fileID: 0}
    - target: {fileID: 1700399183242832490, guid: 63bd0446d14dc8a40a1cf52d0711257a, type: 3}
      propertyPath: m_LocalRotation.z
      value: -0
      objectReference: {fileID: 0}
    - target: {fileID: 1700399183242832490, guid: 63bd0446d14dc8a40a1cf52d0711257a, type: 3}
      propertyPath: m_LocalEulerAnglesHint.x
      value: 0
      objectReference: {fileID: 0}
    - target: {fileID: 1700399183242832490, guid: 63bd0446d14dc8a40a1cf52d0711257a, type: 3}
      propertyPath: m_LocalEulerAnglesHint.y
      value: 0
      objectReference: {fileID: 0}
    - target: {fileID: 1700399183242832490, guid: 63bd0446d14dc8a40a1cf52d0711257a, type: 3}
      propertyPath: m_LocalEulerAnglesHint.z
      value: 0
      objectReference: {fileID: 0}
    m_RemovedComponents: []
  m_SourcePrefab: {fileID: 100100000, guid: 63bd0446d14dc8a40a1cf52d0711257a, type: 3}
--- !u!4 &9136834904571043247 stripped
Transform:
  m_CorrespondingSourceObject: {fileID: 1700399183242832490, guid: 63bd0446d14dc8a40a1cf52d0711257a, type: 3}
  m_PrefabInstance: {fileID: 7590121058797451205}
  m_PrefabAsset: {fileID: 0}
