%YAML 1.1
%TAG !u! tag:unity3d.com,2011:
--- !u!114 &11400000
MonoBehaviour:
  m_ObjectHideFlags: 0
  m_CorrespondingSourceObject: {fileID: 0}
  m_PrefabInstance: {fileID: 0}
  m_PrefabAsset: {fileID: 0}
  m_GameObject: {fileID: 0}
  m_Enabled: 1
  m_EditorHideFlags: 0
  m_Script: {fileID: 11500000, guid: 3a02fff447c6ed84b943b1d05661d745, type: 3}
  m_Name: TiledAsset_Decor_InnerPipes_SteamLeak_Middle
  m_EditorClassIdentifier: 
  nameString: Steam Leak (Middle)
  prefab: {fileID: 6097059589593583754, guid: 7778bbe84a15ff04e998c8f5daf53988, type: 3}
  visual: {fileID: 3820768577715589978, guid: 7778bbe84a15ff04e998c8f5daf53988, type: 3}
  optionalVisual: {fileID: 0}
  width: 1
  height: 1
