%YAML 1.1
%TAG !u! tag:unity3d.com,2011:
--- !u!114 &11400000
MonoBehaviour:
  m_ObjectHideFlags: 0
  m_CorrespondingSourceObject: {fileID: 0}
  m_PrefabInstance: {fileID: 0}
  m_PrefabAsset: {fileID: 0}
  m_GameObject: {fileID: 0}
  m_Enabled: 1
  m_EditorHideFlags: 0
  m_Script: {fileID: 11500000, guid: 3a02fff447c6ed84b943b1d05661d745, type: 3}
  m_Name: TiledAsset_Floor_ElevatedDarkFloor_Small
  m_EditorClassIdentifier: 
  nameString: Elevated Dark Floor (Small)
  prefab: {fileID: 1489149285525419863, guid: 18b0bb3480bf16849abbd6fdd1112732, type: 3}
  visual: {fileID: 2533369853052297954, guid: 18b0bb3480bf16849abbd6fdd1112732, type: 3}
  optionalVisual: {fileID: 0}
  width: 6
  height: 6
