%YAML 1.1
%TAG !u! tag:unity3d.com,2011:
--- !u!114 &11400000
MonoBehaviour:
  m_ObjectHideFlags: 0
  m_CorrespondingSourceObject: {fileID: 0}
  m_PrefabInstance: {fileID: 0}
  m_PrefabAsset: {fileID: 0}
  m_GameObject: {fileID: 0}
  m_Enabled: 1
  m_EditorHideFlags: 0
  m_Script: {fileID: 11500000, guid: 3a02fff447c6ed84b943b1d05661d745, type: 3}
  m_Name: TiledAsset_Floor_ElevatedDarkFloor
  m_EditorClassIdentifier: 
  nameString: Elevated Dark Floor
  prefab: {fileID: 5037340209506744327, guid: d6a2e53d9e9248e47b426aaa8644ff9d, type: 3}
  visual: {fileID: 5037340209506744329, guid: d6a2e53d9e9248e47b426aaa8644ff9d, type: 3}
  optionalVisual: {fileID: 0}
  width: 12
  height: 12
