%YAML 1.1
%TAG !u! tag:unity3d.com,2011:
--- !u!1 &3289521406842085920
GameObject:
  m_ObjectHideFlags: 0
  m_CorrespondingSourceObject: {fileID: 0}
  m_PrefabInstance: {fileID: 0}
  m_PrefabAsset: {fileID: 0}
  serializedVersion: 6
  m_Component:
  - component: {fileID: 5996227492634204340}
  - component: {fileID: 146390389427698571}
  m_Layer: 0
  m_Name: Tiled_Roof_Normal_BigSquare
  m_TagString: Untagged
  m_Icon: {fileID: 0}
  m_NavMeshLayer: 0
  m_StaticEditorFlags: 0
  m_IsActive: 1
--- !u!4 &5996227492634204340
Transform:
  m_ObjectHideFlags: 0
  m_CorrespondingSourceObject: {fileID: 0}
  m_PrefabInstance: {fileID: 0}
  m_PrefabAsset: {fileID: 0}
  m_GameObject: {fileID: 3289521406842085920}
  m_LocalRotation: {x: 0, y: 0, z: 0, w: 1}
  m_LocalPosition: {x: 0, y: 0, z: 0}
  m_LocalScale: {x: 1, y: 1, z: 1}
  m_Children:
  - {fileID: 2706242906913227221}
  m_Father: {fileID: 0}
  m_RootOrder: 0
  m_LocalEulerAnglesHint: {x: 0, y: 0, z: 0}
--- !u!114 &146390389427698571
MonoBehaviour:
  m_ObjectHideFlags: 0
  m_CorrespondingSourceObject: {fileID: 0}
  m_PrefabInstance: {fileID: 0}
  m_PrefabAsset: {fileID: 0}
  m_GameObject: {fileID: 3289521406842085920}
  m_Enabled: 1
  m_EditorHideFlags: 0
  m_Script: {fileID: 11500000, guid: a3cf5643e9d940c48824c28d366c080b, type: 3}
  m_Name: 
  m_EditorClassIdentifier: 
--- !u!1001 &2333020913709967465
PrefabInstance:
  m_ObjectHideFlags: 0
  serializedVersion: 2
  m_Modification:
    m_TransformParent: {fileID: 5996227492634204340}
    m_Modifications:
    - target: {fileID: 427296319494072764, guid: 7a3bb2c902495c14ab6c3b6c1f252737, type: 3}
      propertyPath: m_RootOrder
      value: 0
      objectReference: {fileID: 0}
    - target: {fileID: 427296319494072764, guid: 7a3bb2c902495c14ab6c3b6c1f252737, type: 3}
      propertyPath: m_LocalPosition.x
      value: 3.317504
      objectReference: {fileID: 0}
    - target: {fileID: 427296319494072764, guid: 7a3bb2c902495c14ab6c3b6c1f252737, type: 3}
      propertyPath: m_LocalPosition.y
      value: 0.00000021430948
      objectReference: {fileID: 0}
    - target: {fileID: 427296319494072764, guid: 7a3bb2c902495c14ab6c3b6c1f252737, type: 3}
      propertyPath: m_LocalPosition.z
      value: -0.79775834
      objectReference: {fileID: 0}
    - target: {fileID: 427296319494072764, guid: 7a3bb2c902495c14ab6c3b6c1f252737, type: 3}
      propertyPath: m_LocalRotation.w
      value: 0.7071068
      objectReference: {fileID: 0}
    - target: {fileID: 427296319494072764, guid: 7a3bb2c902495c14ab6c3b6c1f252737, type: 3}
      propertyPath: m_LocalRotation.x
      value: 0.7071068
      objectReference: {fileID: 0}
    - target: {fileID: 427296319494072764, guid: 7a3bb2c902495c14ab6c3b6c1f252737, type: 3}
      propertyPath: m_LocalRotation.y
      value: 0
      objectReference: {fileID: 0}
    - target: {fileID: 427296319494072764, guid: 7a3bb2c902495c14ab6c3b6c1f252737, type: 3}
      propertyPath: m_LocalRotation.z
      value: 0
      objectReference: {fileID: 0}
    - target: {fileID: 427296319494072764, guid: 7a3bb2c902495c14ab6c3b6c1f252737, type: 3}
      propertyPath: m_LocalEulerAnglesHint.x
      value: 90
      objectReference: {fileID: 0}
    - target: {fileID: 427296319494072764, guid: 7a3bb2c902495c14ab6c3b6c1f252737, type: 3}
      propertyPath: m_LocalEulerAnglesHint.y
      value: 0
      objectReference: {fileID: 0}
    - target: {fileID: 427296319494072764, guid: 7a3bb2c902495c14ab6c3b6c1f252737, type: 3}
      propertyPath: m_LocalEulerAnglesHint.z
      value: 0
      objectReference: {fileID: 0}
    - target: {fileID: 7974476593973344324, guid: 7a3bb2c902495c14ab6c3b6c1f252737, type: 3}
      propertyPath: m_Name
      value: Roof big square
      objectReference: {fileID: 0}
    m_RemovedComponents: []
  m_SourcePrefab: {fileID: 100100000, guid: 7a3bb2c902495c14ab6c3b6c1f252737, type: 3}
--- !u!4 &2706242906913227221 stripped
Transform:
  m_CorrespondingSourceObject: {fileID: 427296319494072764, guid: 7a3bb2c902495c14ab6c3b6c1f252737, type: 3}
  m_PrefabInstance: {fileID: 2333020913709967465}
  m_PrefabAsset: {fileID: 0}
