%YAML 1.1
%TAG !u! tag:unity3d.com,2011:
--- !u!1 &3246430883886937607
GameObject:
  m_ObjectHideFlags: 0
  m_CorrespondingSourceObject: {fileID: 0}
  m_PrefabInstance: {fileID: 0}
  m_PrefabAsset: {fileID: 0}
  serializedVersion: 6
  m_Component:
  - component: {fileID: 3246430883886937609}
  - component: {fileID: 3246430883886937608}
  m_Layer: 0
  m_Name: Tiled_Decor_ContainmentCapsule_Normal_Big
  m_TagString: Untagged
  m_Icon: {fileID: 0}
  m_NavMeshLayer: 0
  m_StaticEditorFlags: 0
  m_IsActive: 1
--- !u!4 &3246430883886937609
Transform:
  m_ObjectHideFlags: 0
  m_CorrespondingSourceObject: {fileID: 0}
  m_PrefabInstance: {fileID: 0}
  m_PrefabAsset: {fileID: 0}
  m_GameObject: {fileID: 3246430883886937607}
  m_LocalRotation: {x: -0, y: -0, z: -0, w: 1}
  m_LocalPosition: {x: 0, y: 0, z: 0}
  m_LocalScale: {x: 1, y: 1, z: 1}
  m_Children:
  - {fileID: 259524302395072679}
  m_Father: {fileID: 0}
  m_RootOrder: 0
  m_LocalEulerAnglesHint: {x: 0, y: 0, z: 0}
--- !u!114 &3246430883886937608
MonoBehaviour:
  m_ObjectHideFlags: 0
  m_CorrespondingSourceObject: {fileID: 0}
  m_PrefabInstance: {fileID: 0}
  m_PrefabAsset: {fileID: 0}
  m_GameObject: {fileID: 3246430883886937607}
  m_Enabled: 1
  m_EditorHideFlags: 0
  m_Script: {fileID: 11500000, guid: a3cf5643e9d940c48824c28d366c080b, type: 3}
  m_Name: 
  m_EditorClassIdentifier: 
--- !u!1001 &3246430882817591250
PrefabInstance:
  m_ObjectHideFlags: 0
  serializedVersion: 2
  m_Modification:
    m_TransformParent: {fileID: 3246430883886937609}
    m_Modifications:
    - target: {fileID: 3357328288407463797, guid: b21fda4af66804844af9579507a6c202, type: 3}
      propertyPath: m_RootOrder
      value: 0
      objectReference: {fileID: 0}
    - target: {fileID: 3357328288407463797, guid: b21fda4af66804844af9579507a6c202, type: 3}
      propertyPath: m_LocalScale.x
      value: 1.4739839
      objectReference: {fileID: 0}
    - target: {fileID: 3357328288407463797, guid: b21fda4af66804844af9579507a6c202, type: 3}
      propertyPath: m_LocalScale.y
      value: 1.4739839
      objectReference: {fileID: 0}
    - target: {fileID: 3357328288407463797, guid: b21fda4af66804844af9579507a6c202, type: 3}
      propertyPath: m_LocalScale.z
      value: 1.4739839
      objectReference: {fileID: 0}
    - target: {fileID: 3357328288407463797, guid: b21fda4af66804844af9579507a6c202, type: 3}
      propertyPath: m_LocalPosition.x
      value: 1.58
      objectReference: {fileID: 0}
    - target: {fileID: 3357328288407463797, guid: b21fda4af66804844af9579507a6c202, type: 3}
      propertyPath: m_LocalPosition.y
      value: 0
      objectReference: {fileID: 0}
    - target: {fileID: 3357328288407463797, guid: b21fda4af66804844af9579507a6c202, type: 3}
      propertyPath: m_LocalPosition.z
      value: 1.5
      objectReference: {fileID: 0}
    - target: {fileID: 3357328288407463797, guid: b21fda4af66804844af9579507a6c202, type: 3}
      propertyPath: m_LocalRotation.w
      value: 1
      objectReference: {fileID: 0}
    - target: {fileID: 3357328288407463797, guid: b21fda4af66804844af9579507a6c202, type: 3}
      propertyPath: m_LocalRotation.x
      value: -0
      objectReference: {fileID: 0}
    - target: {fileID: 3357328288407463797, guid: b21fda4af66804844af9579507a6c202, type: 3}
      propertyPath: m_LocalRotation.y
      value: -0
      objectReference: {fileID: 0}
    - target: {fileID: 3357328288407463797, guid: b21fda4af66804844af9579507a6c202, type: 3}
      propertyPath: m_LocalRotation.z
      value: -0
      objectReference: {fileID: 0}
    - target: {fileID: 3357328288407463797, guid: b21fda4af66804844af9579507a6c202, type: 3}
      propertyPath: m_LocalEulerAnglesHint.x
      value: 0
      objectReference: {fileID: 0}
    - target: {fileID: 3357328288407463797, guid: b21fda4af66804844af9579507a6c202, type: 3}
      propertyPath: m_LocalEulerAnglesHint.y
      value: 0
      objectReference: {fileID: 0}
    - target: {fileID: 3357328288407463797, guid: b21fda4af66804844af9579507a6c202, type: 3}
      propertyPath: m_LocalEulerAnglesHint.z
      value: 0
      objectReference: {fileID: 0}
    - target: {fileID: 3357328288407463798, guid: b21fda4af66804844af9579507a6c202, type: 3}
      propertyPath: m_Name
      value: Capsule_Normal
      objectReference: {fileID: 0}
    m_RemovedComponents: []
  m_SourcePrefab: {fileID: 100100000, guid: b21fda4af66804844af9579507a6c202, type: 3}
--- !u!4 &259524302395072679 stripped
Transform:
  m_CorrespondingSourceObject: {fileID: 3357328288407463797, guid: b21fda4af66804844af9579507a6c202, type: 3}
  m_PrefabInstance: {fileID: 3246430882817591250}
  m_PrefabAsset: {fileID: 0}
