%YAML 1.1
%TAG !u! tag:unity3d.com,2011:
--- !u!1 &6769663483714828819
GameObject:
  m_ObjectHideFlags: 0
  m_CorrespondingSourceObject: {fileID: 0}
  m_PrefabInstance: {fileID: 0}
  m_PrefabAsset: {fileID: 0}
  serializedVersion: 6
  m_Component:
  - component: {fileID: 6769663483714828829}
  - component: {fileID: 6769663483714828828}
  m_Layer: 0
  m_Name: Tiled_Decor_ContainmentCapsule_Wall
  m_TagString: Untagged
  m_Icon: {fileID: 0}
  m_NavMeshLayer: 0
  m_StaticEditorFlags: 0
  m_IsActive: 1
--- !u!4 &6769663483714828829
Transform:
  m_ObjectHideFlags: 0
  m_CorrespondingSourceObject: {fileID: 0}
  m_PrefabInstance: {fileID: 0}
  m_PrefabAsset: {fileID: 0}
  m_GameObject: {fileID: 6769663483714828819}
  m_LocalRotation: {x: -0, y: -0, z: -0, w: 1}
  m_LocalPosition: {x: 0, y: 0, z: 0}
  m_LocalScale: {x: 1, y: 1, z: 1}
  m_Children:
  - {fileID: 6769663484072505721}
  m_Father: {fileID: 0}
  m_RootOrder: 0
  m_LocalEulerAnglesHint: {x: 0, y: 0, z: 0}
--- !u!114 &6769663483714828828
MonoBehaviour:
  m_ObjectHideFlags: 0
  m_CorrespondingSourceObject: {fileID: 0}
  m_PrefabInstance: {fileID: 0}
  m_PrefabAsset: {fileID: 0}
  m_GameObject: {fileID: 6769663483714828819}
  m_Enabled: 1
  m_EditorHideFlags: 0
  m_Script: {fileID: 11500000, guid: a3cf5643e9d940c48824c28d366c080b, type: 3}
  m_Name: 
  m_EditorClassIdentifier: 
--- !u!1 &6769663484072505720
GameObject:
  m_ObjectHideFlags: 0
  m_CorrespondingSourceObject: {fileID: 0}
  m_PrefabInstance: {fileID: 0}
  m_PrefabAsset: {fileID: 0}
  serializedVersion: 6
  m_Component:
  - component: {fileID: 6769663484072505721}
  m_Layer: 0
  m_Name: Pivot
  m_TagString: Untagged
  m_Icon: {fileID: 0}
  m_NavMeshLayer: 0
  m_StaticEditorFlags: 0
  m_IsActive: 1
--- !u!4 &6769663484072505721
Transform:
  m_ObjectHideFlags: 0
  m_CorrespondingSourceObject: {fileID: 0}
  m_PrefabInstance: {fileID: 0}
  m_PrefabAsset: {fileID: 0}
  m_GameObject: {fileID: 6769663484072505720}
  m_LocalRotation: {x: -0, y: -0, z: -0, w: 1}
  m_LocalPosition: {x: 0, y: 0.0058444887, z: 1.255}
  m_LocalScale: {x: 1, y: 1, z: 1}
  m_Children:
  - {fileID: 5039199256155840815}
  m_Father: {fileID: 6769663483714828829}
  m_RootOrder: 0
  m_LocalEulerAnglesHint: {x: 0, y: 0, z: 0}
--- !u!1001 &6769663482987592088
PrefabInstance:
  m_ObjectHideFlags: 0
  serializedVersion: 2
  m_Modification:
    m_TransformParent: {fileID: 6769663484072505721}
    m_Modifications:
    - target: {fileID: 1737395585163221175, guid: 223948997aa12624282ee97e55155a10, type: 3}
      propertyPath: m_RootOrder
      value: 0
      objectReference: {fileID: 0}
    - target: {fileID: 1737395585163221175, guid: 223948997aa12624282ee97e55155a10, type: 3}
      propertyPath: m_LocalScale.y
      value: 0.7388588
      objectReference: {fileID: 0}
    - target: {fileID: 1737395585163221175, guid: 223948997aa12624282ee97e55155a10, type: 3}
      propertyPath: m_LocalPosition.x
      value: 0.34711936
      objectReference: {fileID: 0}
    - target: {fileID: 1737395585163221175, guid: 223948997aa12624282ee97e55155a10, type: 3}
      propertyPath: m_LocalPosition.y
      value: -0.0058444887
      objectReference: {fileID: 0}
    - target: {fileID: 1737395585163221175, guid: 223948997aa12624282ee97e55155a10, type: 3}
      propertyPath: m_LocalPosition.z
      value: 0.109
      objectReference: {fileID: 0}
    - target: {fileID: 1737395585163221175, guid: 223948997aa12624282ee97e55155a10, type: 3}
      propertyPath: m_LocalRotation.w
      value: 0
      objectReference: {fileID: 0}
    - target: {fileID: 1737395585163221175, guid: 223948997aa12624282ee97e55155a10, type: 3}
      propertyPath: m_LocalRotation.x
      value: -0.7071068
      objectReference: {fileID: 0}
    - target: {fileID: 1737395585163221175, guid: 223948997aa12624282ee97e55155a10, type: 3}
      propertyPath: m_LocalRotation.y
      value: 0.7071068
      objectReference: {fileID: 0}
    - target: {fileID: 1737395585163221175, guid: 223948997aa12624282ee97e55155a10, type: 3}
      propertyPath: m_LocalRotation.z
      value: -0
      objectReference: {fileID: 0}
    - target: {fileID: 1737395585163221175, guid: 223948997aa12624282ee97e55155a10, type: 3}
      propertyPath: m_LocalEulerAnglesHint.x
      value: 0
      objectReference: {fileID: 0}
    - target: {fileID: 1737395585163221175, guid: 223948997aa12624282ee97e55155a10, type: 3}
      propertyPath: m_LocalEulerAnglesHint.y
      value: 180
      objectReference: {fileID: 0}
    - target: {fileID: 1737395585163221175, guid: 223948997aa12624282ee97e55155a10, type: 3}
      propertyPath: m_LocalEulerAnglesHint.z
      value: -90
      objectReference: {fileID: 0}
    - target: {fileID: 5974649070731595321, guid: 223948997aa12624282ee97e55155a10, type: 3}
      propertyPath: m_Name
      value: CapsuleWall
      objectReference: {fileID: 0}
    m_RemovedComponents: []
  m_SourcePrefab: {fileID: 100100000, guid: 223948997aa12624282ee97e55155a10, type: 3}
--- !u!4 &5039199256155840815 stripped
Transform:
  m_CorrespondingSourceObject: {fileID: 1737395585163221175, guid: 223948997aa12624282ee97e55155a10, type: 3}
  m_PrefabInstance: {fileID: 6769663482987592088}
  m_PrefabAsset: {fileID: 0}
