%YAML 1.1
%TAG !u! tag:unity3d.com,2011:
--- !u!114 &11400000
MonoBehaviour:
  m_ObjectHideFlags: 0
  m_CorrespondingSourceObject: {fileID: 0}
  m_PrefabInstance: {fileID: 0}
  m_PrefabAsset: {fileID: 0}
  m_GameObject: {fileID: 0}
  m_Enabled: 1
  m_EditorHideFlags: 0
  m_Script: {fileID: 11500000, guid: 04fee737ef44bcf4cbf3b3964d828dbd, type: 3}
  m_Name: MetalStepsRun2
  m_EditorClassIdentifier: 
  files:
  - {fileID: 11400000, guid: ff373e0bc1a78414496fba25298ad419, type: 2}
