%YAML 1.1
%TAG !u! tag:unity3d.com,2011:
--- !u!114 &11400000
MonoBehaviour:
  m_ObjectHideFlags: 0
  m_CorrespondingSourceObject: {fileID: 0}
  m_PrefabInstance: {fileID: 0}
  m_PrefabAsset: {fileID: 0}
  m_GameObject: {fileID: 0}
  m_Enabled: 1
  m_EditorHideFlags: 0
  m_Script: {fileID: 11500000, guid: 3a02fff447c6ed84b943b1d05661d745, type: 3}
  m_Name: TiledAsset_Decor_Computer_Little_DoublePanel
  m_EditorClassIdentifier: 
  nameString: Little Computer Double Panel
  prefab: {fileID: 7742467595564980850, guid: 48abaf2850fb1cd4ebd7435013bd76d6, type: 3}
  visual: {fileID: 3365654185142700472, guid: 48abaf2850fb1cd4ebd7435013bd76d6, type: 3}
  optionalVisual: {fileID: 0}
  width: 1
  height: 1
