%YAML 1.1
%TAG !u! tag:unity3d.com,2011:
--- !u!114 &11400000
MonoBehaviour:
  m_ObjectHideFlags: 0
  m_CorrespondingSourceObject: {fileID: 0}
  m_PrefabInstance: {fileID: 0}
  m_PrefabAsset: {fileID: 0}
  m_GameObject: {fileID: 0}
  m_Enabled: 1
  m_EditorHideFlags: 0
  m_Script: {fileID: 11500000, guid: 3a02fff447c6ed84b943b1d05661d745, type: 3}
  m_Name: TiledAsset_Decor_Computer_Big_DoublePanel
  m_EditorClassIdentifier: 
  nameString: Big Computer Double Panel
  prefab: {fileID: 5784776413669699620, guid: 666e59b28d4ec5046bd67415cf5898ca, type: 3}
  visual: {fileID: 8491498233421361772, guid: 666e59b28d4ec5046bd67415cf5898ca, type: 3}
  optionalVisual: {fileID: 0}
  width: 3
  height: 1
