%YAML 1.1
%TAG !u! tag:unity3d.com,2011:
--- !u!162 &1
EditorUserSettings:
  m_ObjectHideFlags: 0
  serializedVersion: 4
  m_ConfigSettings:
    RecentlyUsedScenePath-0:
      value: 22424703114646680e0b0227036c711501572b29292623707c67083debf42d
      flags: 0
    RecentlyUsedScenePath-1:
      value: 22424703114646680e0b0227036c6b150503563f22213229
      flags: 0
    RecentlyUsedScenePath-2:
      value: 22424703114646680e0b0227036c72151802563f22213229
      flags: 0
    RecentlyUsedScenePath-3:
      value: 22424703114646680e0b0227036c73150012140839212a34283b2936f1f42777c0f23fe5e33f2d722c0ce6281d
      flags: 0
    RecentlyUsedScenePath-4:
      value: 22424703114646680e0b0227036c6b0502180a232d246661633c133af6f9
      flags: 0
    RecentlyUsedScenePath-5:
      value: 22424703114646680e0b0227036c6f1f04031926182d35243e663632efd03b2af6e63adde2292b2f7717e1351027
      flags: 0
    RecentlyUsedScenePath-6:
      value: 22424703114646680e0b0227036c6b1505032b292926237e38271427fb
      flags: 0
    RecentlyUsedScenePath-7:
      value: 22424703114646680e0b0227036c73150012140839212a34283b5326ece92021
      flags: 0
    RecentlyUsedScenePath-8:
      value: 22424703114646680e0b0227036c72151802580c2526273c633c133af6f9
      flags: 0
    RecentlyUsedScenePath-9:
      value: 22424703114646680e0b0227036c6b0502180a232d2468252320092a
      flags: 0
    vcSharedLogLevel:
      value: 0d5e400f0650
      flags: 0
  m_VCAutomaticAdd: 1
  m_VCDebugCom: 0
  m_VCDebugCmd: 0
  m_VCDebugOut: 0
  m_SemanticMergeMode: 2
  m_VCShowFailedCheckout: 1
  m_VCOverwriteFailedCheckoutAssets: 1
  m_VCProjectOverlayIcons: 1
  m_VCHierarchyOverlayIcons: 1
  m_VCOtherOverlayIcons: 1
  m_VCAllowAsyncUpdate: 1
