%YAML 1.1
%TAG !u! tag:unity3d.com,2011:
--- !u!114 &11400000
MonoBehaviour:
  m_ObjectHideFlags: 0
  m_CorrespondingSourceObject: {fileID: 0}
  m_PrefabInstance: {fileID: 0}
  m_PrefabAsset: {fileID: 0}
  m_GameObject: {fileID: 0}
  m_Enabled: 1
  m_EditorHideFlags: 0
  m_Script: {fileID: 11500000, guid: 3a02fff447c6ed84b943b1d05661d745, type: 3}
  m_Name: TiledAsset_Decor_DestroyedGarbage
  m_EditorClassIdentifier: 
  nameString: DestroyedGarbage
  prefab: {fileID: 8222457335050148717, guid: 4be9ad9a2fb0d0c4da789d8f2622d52b, type: 3}
  visual: {fileID: 1357027870372482902, guid: 4be9ad9a2fb0d0c4da789d8f2622d52b, type: 3}
  optionalVisual: {fileID: 0}
  width: 3
  height: 6
