%YAML 1.1
%TAG !u! tag:unity3d.com,2011:
--- !u!114 &11400000
MonoBehaviour:
  m_ObjectHideFlags: 0
  m_CorrespondingSourceObject: {fileID: 0}
  m_PrefabInstance: {fileID: 0}
  m_PrefabAsset: {fileID: 0}
  m_GameObject: {fileID: 0}
  m_Enabled: 1
  m_EditorHideFlags: 0
  m_Script: {fileID: 11500000, guid: 3a02fff447c6ed84b943b1d05661d745, type: 3}
  m_Name: TiledAsset_Decor_Table
  m_EditorClassIdentifier: 
  nameString: Table
  prefab: {fileID: 4449449008436608619, guid: 67b2ab4325bcb304d9c2213e990cb76f, type: 3}
  visual: {fileID: 6734770978174315088, guid: 67b2ab4325bcb304d9c2213e990cb76f, type: 3}
  optionalVisual: {fileID: 0}
  width: 2
  height: 2
