%YAML 1.1
%TAG !u! tag:unity3d.com,2011:
--- !u!114 &11400000
MonoBehaviour:
  m_ObjectHideFlags: 0
  m_CorrespondingSourceObject: {fileID: 0}
  m_PrefabInstance: {fileID: 0}
  m_PrefabAsset: {fileID: 0}
  m_GameObject: {fileID: 0}
  m_Enabled: 1
  m_EditorHideFlags: 0
  m_Script: {fileID: 11500000, guid: 3a02fff447c6ed84b943b1d05661d745, type: 3}
  m_Name: TiledAsset_Decor_Table_Side_45Degrees
  m_EditorClassIdentifier: 
  nameString: "Table Side 45\xB0"
  prefab: {fileID: 5038581396436913193, guid: 5321204ecdbd7da47b7bd4760a883f96, type: 3}
  visual: {fileID: 2676699333186869266, guid: 5321204ecdbd7da47b7bd4760a883f96, type: 3}
  optionalVisual: {fileID: 0}
  width: 2
  height: 2
